<?xml version="1.0" standalone="no"?>
<!DOCTYPE svg PUBLIC "-//W3C//DTD SVG 1.1//EN" "http://www.w3.org/Graphics/SVG/1.1/DTD/svg11.dtd" >
<svg xmlns="http://www.w3.org/2000/svg">
<metadata></metadata>
<defs>
<font id="proxima_nova_rgregular" horiz-adv-x="471" >
<font-face units-per-em="2048" ascent="1618" descent="-430" />
<missing-glyph horiz-adv-x="528" />
<glyph unicode="&#xfb01;" horiz-adv-x="1042" d="M33 854v135h164v76q0 152 77.5 236.5t208.5 84.5q97 0 150 -34l-39 -117q-41 25 -88 25q-75 0 -115.5 -50.5t-40.5 -144.5v-76h201v-135h-201v-854h-153v854h-164zM707 1233q0 43 30.5 73.5t71.5 30.5q43 0 73.5 -30.5t30.5 -73.5t-30.5 -73t-73.5 -30q-41 0 -71.5 30 t-30.5 73zM733 0v989h154v-989h-154z" />
<glyph unicode="&#xfb02;" horiz-adv-x="1042" d="M33 854v135h164v76q0 152 77.5 236.5t208.5 84.5q97 0 150 -34l-39 -117q-41 25 -88 25q-75 0 -115.5 -50.5t-40.5 -144.5v-76h201v-135h-201v-854h-153v854h-164zM733 0v1366h154v-1366h-154z" />
<glyph horiz-adv-x="0" />
<glyph horiz-adv-x="0" />
<glyph horiz-adv-x="682" />
<glyph unicode="&#xd;" horiz-adv-x="0" />
<glyph unicode=" "  horiz-adv-x="528" />
<glyph unicode="&#x09;" horiz-adv-x="528" />
<glyph unicode="&#xa0;" horiz-adv-x="528" />
<glyph unicode="!" d="M123 92q0 46 33.5 79.5t79.5 33.5t79 -33.5t33 -79.5q0 -45 -33.5 -78.5t-78.5 -33.5q-46 0 -79.5 34t-33.5 78zM139 1366h193l-33 -983h-127z" />
<glyph unicode="&#x22;" horiz-adv-x="702" d="M111 1292q0 38 27 66t65 28q39 0 66.5 -27.5t27.5 -66.5q0 -13 -13.5 -125t-27.5 -217l-14 -106h-76q-55 419 -55 448zM408 1292q0 39 27.5 66.5t66.5 27.5q38 0 65 -28t27 -66q0 -13 -14 -125t-28 -217l-13 -106h-76q-55 419 -55 448z" />
<glyph unicode="#" horiz-adv-x="1208" d="M45 371l35 108h219l135 408h-221l33 106h225l123 373h127l-123 -373h225l123 373h125l-125 -373h219l-30 -106h-224l-137 -408h227l-32 -108h-232l-123 -371h-125l125 371h-227l-123 -371h-127l125 371h-217zM424 479h225l135 408h-225z" />
<glyph unicode="$" horiz-adv-x="1214" d="M86 193l100 129q67 -75 160.5 -127.5t208.5 -65.5v500q-54 15 -90 26t-85 30t-81 38t-67 48t-55.5 62t-34 77.5t-13.5 97.5q0 158 119 261.5t307 114.5v189h125v-191q246 -23 403 -186l-102 -125q-122 131 -301 156v-445q53 -15 91 -27t86.5 -32t82.5 -41t69 -52 t56.5 -66.5t35 -83t13.5 -103.5q0 -73 -24 -138t-74 -121.5t-136 -94t-200 -46.5v-182h-125v182q-295 17 -469 216zM305 1018q0 -42 18.5 -74t55.5 -56t77 -40t99 -33v418q-111 -8 -180.5 -66.5t-69.5 -148.5zM680 129q134 14 196 81.5t62 151.5q0 48 -19 85.5t-57 64.5 t-80 45.5t-102 36.5v-465z" />
<glyph unicode="%" horiz-adv-x="1497" d="M63 1047q0 146 91.5 242.5t236.5 96.5q146 0 239 -96.5t93 -242.5q0 -144 -93 -239t-239 -95q-145 0 -236.5 95t-91.5 239zM186 1047q0 -98 57.5 -165t147.5 -67q91 0 150 67t59 165q0 102 -58.5 168.5t-150.5 66.5q-90 0 -147.5 -66.5t-57.5 -168.5zM262 0l873 1366h112 l-874 -1366h-111zM776 309q0 146 91.5 243t236.5 97t237.5 -97t92.5 -243q0 -144 -92.5 -239t-237.5 -95t-236.5 95t-91.5 239zM897 309q0 -98 58 -164.5t149 -66.5t150 66.5t59 164.5q0 102 -58.5 169t-150.5 67q-91 0 -149 -67t-58 -169z" />
<glyph unicode="&#x26;" horiz-adv-x="1312" d="M74 356q0 77 23.5 140.5t69 112t93.5 83.5t115 70q-105 179 -105 307q0 136 99 226.5t245 90.5q137 0 223.5 -71t86.5 -197q0 -43 -11.5 -81.5t-26.5 -68t-45.5 -60t-54 -50t-67.5 -46t-69 -40t-75 -39.5q60 -83 158 -194q70 -85 162 -183q87 129 147 312l134 -58 q-98 -227 -187 -352q102 -107 266 -258h-213q-62 53 -149 143q-168 -168 -393 -168q-186 0 -306 99t-120 282zM240 367q0 -122 80.5 -193.5t193.5 -71.5q151 0 287 136q-141 149 -189 206q-100 115 -172 218q-96 -59 -148 -128t-52 -167zM430 1067q0 -96 82 -236 q50 25 84.5 44t72.5 46.5t60.5 54t37.5 62t15 74.5q0 73 -45 113.5t-116 40.5q-79 0 -135 -56.5t-56 -142.5z" />
<glyph unicode="'" horiz-adv-x="407" d="M111 1292q0 38 27 66t65 28q39 0 66.5 -27.5t27.5 -66.5q0 -13 -13.5 -125t-27.5 -217l-14 -106h-76q-55 419 -55 448z" />
<glyph unicode="(" horiz-adv-x="507" d="M90 498q0 246 75 479.5t214 425.5l92 -70q-108 -214 -160.5 -404t-52.5 -431q0 -240 52.5 -431t160.5 -403l-92 -72q-139 190 -214 424.5t-75 481.5z" />
<glyph unicode=")" horiz-adv-x="507" d="M35 -336q109 211 162 402.5t53 431.5q0 241 -53 431.5t-162 403.5l92 70q140 -191 215.5 -425t75.5 -480q0 -247 -75.5 -482t-215.5 -424z" />
<glyph unicode="*" horiz-adv-x="696" d="M70 985l209 107l-209 106l45 80l196 -127l-10 235h94l-12 -235l197 127l47 -80l-209 -106l209 -107l-47 -82l-197 129l12 -235h-94l10 235l-196 -129z" />
<glyph unicode="+" horiz-adv-x="1021" d="M59 637v106h394v424h116v-424h394v-106h-394v-436h-116v436h-394z" />
<glyph unicode="," d="M117 -197q51 33 89 87t44 104q-8 -4 -29 -4q-43 0 -70.5 29t-27.5 75q0 45 31.5 78t76.5 33q53 0 91 -42.5t38 -113.5q0 -90 -46.5 -173t-120.5 -136z" />
<glyph unicode="-" horiz-adv-x="614" d="M61 428v135h492v-135h-492z" />
<glyph unicode="." d="M123 92q0 46 33.5 79.5t79.5 33.5t79 -33.5t33 -79.5t-33 -79t-79 -33t-79.5 33t-33.5 79z" />
<glyph unicode="/" horiz-adv-x="606" d="M0 -41l485 1448h121l-485 -1448h-121z" />
<glyph unicode="0" horiz-adv-x="1253" d="M104 682q0 104 18 202t58.5 190t100 160.5t148.5 110t198 41.5q108 0 197 -41.5t148.5 -110t100 -160.5t58.5 -190.5t18 -201.5t-18 -201.5t-58.5 -191t-100 -161.5t-148.5 -111t-197 -42q-109 0 -198 42t-148.5 111t-100 162t-58.5 191t-18 201zM279 682 q0 -108 18.5 -202.5t57.5 -176t109 -129t163 -47.5t163 47.5t109 129t57.5 176t18.5 202.5q0 85 -11 162t-37 149.5t-65 125.5t-99.5 84.5t-135.5 31.5t-135.5 -31.5t-99.5 -84.5t-65 -125.5t-37 -149.5t-11 -162z" />
<glyph unicode="1" horiz-adv-x="694" d="M43 1014l342 352h150v-1366h-170v1141l-220 -232z" />
<glyph unicode="2" horiz-adv-x="1204" d="M109 1171q77 102 203 158.5t272 56.5q87 0 167.5 -25t146 -73t105 -126.5t39.5 -176.5q0 -82 -34 -166.5t-88 -159.5t-145 -165.5t-179 -165t-217 -176.5h670v-152h-938v135q103 81 174.5 138.5t150.5 123.5t131.5 115t106 104t85.5 99t59 91t38.5 91t11.5 88 q0 83 -42.5 141.5t-105 83.5t-136.5 25q-119 0 -213.5 -46t-157.5 -126z" />
<glyph unicode="3" horiz-adv-x="1140" d="M59 201l101 106q62 -82 162.5 -131t218.5 -49q149 0 234 68.5t85 187.5q0 123 -91 182.5t-249 59.5q-121 0 -141 -2v155q23 -2 141 -2q139 0 228.5 56.5t89.5 168.5q0 110 -87.5 172t-218.5 62q-110 0 -196.5 -41t-163.5 -125l-94 107q79 95 197.5 152.5t269.5 57.5 q202 0 332.5 -97.5t130.5 -266.5q0 -70 -27.5 -128.5t-72.5 -96t-94 -60.5t-101 -32q39 -3 81 -17.5t84 -42.5t75 -65.5t54 -92.5t21 -118q0 -174 -130.5 -284t-352.5 -110q-165 0 -291.5 63.5t-194.5 162.5z" />
<glyph unicode="4" horiz-adv-x="1142" d="M66 346v141l585 879h234v-870h192v-150h-192v-346h-170v346h-649zM236 496h479v712z" />
<glyph unicode="5" horiz-adv-x="1208" d="M135 195l105 112q141 -180 376 -180q138 0 227 83.5t89 209.5q0 134 -87.5 214.5t-226.5 80.5q-183 0 -315 -129l-125 43v737h836v-152h-666v-475q53 53 138 88t182 35q86 0 163.5 -29t138.5 -83t96.5 -138t35.5 -186q0 -205 -138 -328t-348 -123q-315 0 -481 220z" />
<glyph unicode="6" horiz-adv-x="1210" d="M104 680q0 113 20.5 216t65 193t108.5 155.5t156.5 103.5t204.5 38q236 0 379 -163l-86 -127q-58 68 -125.5 103.5t-167.5 35.5q-95 0 -170.5 -46t-121.5 -122.5t-69.5 -171t-23.5 -197.5q0 -35 2 -53q51 81 158.5 147t229.5 66q93 0 173.5 -27.5t141.5 -80.5t96 -137.5 t35 -190.5q0 -89 -33.5 -170t-93.5 -142.5t-151.5 -98t-200.5 -36.5q-111 0 -200.5 38t-149.5 103t-100.5 155.5t-58.5 192.5t-18 216zM281 506q6 -69 27.5 -132t60.5 -120.5t105 -92t151 -34.5q76 0 137.5 26.5t98.5 69t57 92.5t20 101q0 144 -88 219.5t-227 75.5 q-100 0 -192 -56.5t-150 -148.5z" />
<glyph unicode="7" horiz-adv-x="1054" d="M63 1214v152h932v-117l-559 -1249h-188l551 1214h-736z" />
<glyph unicode="8" horiz-adv-x="1189" d="M106 346q0 129 94 223t232 136q-132 38 -217.5 119.5t-85.5 207.5q0 89 40.5 158.5t108.5 111t149 63t169 21.5q87 0 168.5 -21.5t150 -63t109.5 -111t41 -158.5q0 -65 -25 -120t-69 -94.5t-96.5 -67t-114.5 -45.5q138 -41 231.5 -135.5t93.5 -223.5 q0 -168 -140.5 -269.5t-348.5 -101.5q-136 0 -246.5 43.5t-177 129t-66.5 198.5zM276 365q0 -107 94 -172.5t226 -65.5q131 0 224 65.5t93 172.5q0 51 -25 95t-62 72.5t-82.5 50.5t-82 32.5t-65.5 13.5q-29 -3 -66 -13.5t-82.5 -32.5t-83 -50.5t-63 -72.5t-25.5 -95z M299 1010q0 -47 23.5 -86.5t56.5 -64t77.5 -44t76.5 -28t63 -13.5q31 5 63.5 13.5t76.5 28t77 44t56.5 64t23.5 86.5q0 103 -85 164t-212 61q-128 0 -212.5 -61t-84.5 -164z" />
<glyph unicode="9" horiz-adv-x="1210" d="M100 942q0 89 33.5 169.5t93.5 142.5t151.5 98.5t199.5 36.5q112 0 202 -38t150 -103t100 -156t58 -193t18 -217q0 -113 -20.5 -215.5t-65 -192t-108.5 -155.5t-156.5 -104t-204.5 -38q-235 0 -379 164l86 127q58 -68 126 -103.5t167 -35.5q80 0 145.5 31t109.5 83 t74 121.5t43 144.5t13 155q0 37 -2 55q-51 -81 -158 -147t-227 -66q-126 0 -225.5 47t-161.5 147.5t-62 241.5zM272 948q0 -144 88.5 -219.5t227.5 -75.5q100 0 193 56t147 147q-4 54 -17.5 105t-40.5 102t-64.5 89t-94 61.5t-125.5 23.5q-75 0 -136.5 -27t-99.5 -69.5 t-58 -92.5t-20 -100z" />
<glyph unicode=":" d="M123 92q0 46 33.5 79.5t79.5 33.5t79 -33.5t33 -79.5t-33 -79t-79 -33t-79.5 33t-33.5 79zM123 891q0 46 33.5 79.5t79.5 33.5t79 -33.5t33 -79.5t-33 -79.5t-79 -33.5t-79.5 33.5t-33.5 79.5z" />
<glyph unicode=";" d="M117 -195q50 33 88.5 88t44.5 105q-12 -6 -29 -6q-43 0 -70.5 29.5t-27.5 74.5q0 46 31.5 79.5t76.5 33.5q53 0 91 -42.5t38 -113.5q0 -92 -46.5 -174.5t-120.5 -134.5zM123 891q0 46 33.5 79.5t79.5 33.5t79 -33.5t33 -79.5q0 -45 -33.5 -79t-78.5 -34t-79 34t-34 79z " />
<glyph unicode="&#x3c;" horiz-adv-x="1021" d="M59 631v108l904 449v-129l-773 -375l773 -373v-127z" />
<glyph unicode="=" horiz-adv-x="1021" d="M59 432v107h904v-107h-904zM59 827v109h904v-109h-904z" />
<glyph unicode="&#x3e;" horiz-adv-x="1021" d="M59 184v127l770 373l-770 375v129l904 -449v-108z" />
<glyph unicode="?" horiz-adv-x="946" d="M37 1178q76 98 189 153t255 55q183 0 292.5 -90.5t109.5 -226.5q0 -63 -22 -116t-57 -90.5t-77.5 -70.5t-85 -62t-77.5 -57.5t-57 -64.5t-22 -76q0 -25 15 -52.5t41 -47.5l-125 -53q-80 68 -80 166q0 61 27.5 112t68.5 84.5t89.5 69t89.5 65.5t68.5 73.5t27.5 94.5 q0 81 -63 136t-179 55q-109 0 -186.5 -43.5t-139.5 -124.5zM346 92q0 46 33.5 79.5t79.5 33.5t79 -33.5t33 -79.5t-33 -79t-79 -33t-79.5 33t-33.5 79z" />
<glyph unicode="@" horiz-adv-x="1603" d="M72 500q0 162 67.5 312t179 258t260.5 172.5t306 64.5q189 0 337.5 -88t228 -235.5t79.5 -326.5q0 -116 -31 -210.5t-82 -152.5t-113 -89t-128 -31q-82 0 -132 48.5t-55 117.5l-2 12q-57 -79 -142.5 -128.5t-180.5 -49.5q-142 0 -228 92t-86 242q0 104 41.5 200 t108.5 164.5t154 109t177 40.5q95 0 163.5 -45t99.5 -115l26 127h140l-117 -555q-4 -24 -4 -43q0 -51 27 -78.5t69 -27.5q26 0 54 11t58.5 39t54 68.5t39 106.5t15.5 147q0 254 -160 417t-419 163q-145 0 -281 -61t-235.5 -161.5t-159.5 -235t-60 -275.5q0 -163 75.5 -295.5 t210.5 -208.5t302 -76q199 0 381 115l37 -53q-200 -129 -426 -129q-183 0 -332 85t-233 232t-84 326zM496 516q0 -100 56.5 -163.5t152.5 -63.5t174 53.5t131 130.5l59 283q-21 58 -75 104.5t-136 46.5q-99 0 -183.5 -56.5t-131.5 -146.5t-47 -188z" />
<glyph unicode="A" horiz-adv-x="1347" d="M18 0l549 1366h211l551 -1366h-194l-121 303h-680l-121 -303h-195zM383 455h580l-289 735z" />
<glyph unicode="B" horiz-adv-x="1288" d="M160 0v1366h608q176 0 279.5 -96t103.5 -252q0 -123 -70 -207t-170 -106q109 -17 188 -115.5t79 -220.5q0 -167 -105.5 -268t-290.5 -101h-622zM330 152h418q119 0 186 63t67 172q0 100 -66.5 168t-186.5 68h-418v-471zM330 774h409q112 0 174 61t62 158q0 96 -62 158.5 t-174 62.5h-409v-440z" />
<glyph unicode="C" horiz-adv-x="1384" d="M104 682q0 154 55 287t149 224.5t223.5 143.5t275.5 52q326 0 518 -271l-143 -80q-60 89 -160.5 144t-214.5 55q-148 0 -268 -70t-189 -197.5t-69 -287.5q0 -159 69 -286.5t189 -198t268 -70.5q115 0 215 54.5t160 144.5l145 -80q-200 -271 -520 -271q-146 0 -275.5 52 t-223.5 143.5t-149 224.5t-55 287z" />
<glyph unicode="D" horiz-adv-x="1433" d="M160 0v1366h467q208 0 368.5 -90.5t246 -245.5t85.5 -348q0 -145 -50 -270.5t-140.5 -216.5t-222 -143t-287.5 -52h-467zM330 152h297q161 0 282 72t181.5 191t60.5 267q0 150 -59.5 269t-180 191t-284.5 72h-297v-1062z" />
<glyph unicode="E" horiz-adv-x="1165" d="M160 0v1366h895v-152h-725v-440h710v-151h-710v-471h725v-152h-895z" />
<glyph unicode="F" horiz-adv-x="1126" d="M160 0v1366h895v-152h-725v-440h710v-151h-710v-623h-170z" />
<glyph unicode="G" horiz-adv-x="1460" d="M104 682q0 156 55.5 289t150 224t223.5 142.5t274 51.5q323 0 530 -256l-135 -84q-66 86 -170.5 137t-224.5 51q-148 0 -268 -70t-189 -197.5t-69 -287.5q0 -242 150.5 -399.5t375.5 -157.5q113 0 210.5 44t156.5 103v279h-469v151h638v-493q-99 -110 -236.5 -173 t-299.5 -63q-145 0 -274 51.5t-223.5 143t-150 225t-55.5 289.5z" />
<glyph unicode="H" horiz-adv-x="1458" d="M160 0v1366h170v-588h798v588h170v-1366h-170v627h-798v-627h-170z" />
<glyph unicode="I" horiz-adv-x="489" d="M160 0v1366h170v-1366h-170z" />
<glyph unicode="J" horiz-adv-x="972" d="M23 133l88 129q111 -135 258 -135q125 0 199.5 79t74.5 208v952h170v-954q0 -109 -33.5 -193.5t-92.5 -137t-137 -79.5t-171 -27q-222 0 -356 158z" />
<glyph unicode="K" horiz-adv-x="1230" d="M160 0v1366h170v-707l604 707h213l-569 -649l618 -717h-211l-518 614l-137 -155v-459h-170z" />
<glyph unicode="L" horiz-adv-x="1044" d="M160 0v1366h170v-1214h635v-152h-805z" />
<glyph unicode="M" horiz-adv-x="1656" d="M160 0v1366h243l424 -1028l426 1028h244v-1366h-170v1124l-465 -1124h-69l-463 1124v-1124h-170z" />
<glyph unicode="N" horiz-adv-x="1449" d="M160 0v1366h174l786 -1067v1067h170v-1366h-164l-796 1090v-1090h-170z" />
<glyph unicode="O" horiz-adv-x="1566" d="M104 682q0 200 84 361t239.5 253.5t354.5 92.5q198 0 353.5 -92.5t240 -253.5t84.5 -361t-84.5 -361t-240 -253.5t-353.5 -92.5q-199 0 -354.5 92.5t-239.5 253.5t-84 361zM281 682q0 -158 60.5 -284t175.5 -198.5t265 -72.5q149 0 264.5 72.5t176.5 198.5t61 284 q0 159 -61 285t-176 198t-265 72q-227 0 -364 -156t-137 -399z" />
<glyph unicode="P" horiz-adv-x="1202" d="M160 0v1366h549q198 0 313 -118.5t115 -293.5q0 -174 -116 -292.5t-312 -118.5h-379v-543h-170zM330 694h358q121 0 197 72t76 188t-76 188t-197 72h-358v-520z" />
<glyph unicode="Q" horiz-adv-x="1566" d="M104 682q0 200 84 361t239.5 253.5t354.5 92.5q198 0 353.5 -92.5t240 -253.5t84.5 -361q0 -151 -49 -280t-139 -224l131 -139l-119 -102l-133 141q-159 -103 -369 -103q-199 0 -354.5 92.5t-239.5 253.5t-84 361zM281 682q0 -158 60.5 -284t175.5 -198.5t265 -72.5 q145 0 260 70l-194 211l119 100l192 -209q125 153 125 383q0 159 -61 285t-176 198t-265 72q-227 0 -364 -156t-137 -399z" />
<glyph unicode="R" horiz-adv-x="1245" d="M160 0v1366h549q190 0 309 -112.5t119 -299.5q0 -175 -103 -279.5t-252 -117.5l369 -557h-201l-348 543h-272v-543h-170zM330 692h358q121 0 197 73t76 189t-76 188t-197 72h-358v-522z" />
<glyph unicode="S" horiz-adv-x="1200" d="M78 193l100 129q76 -85 186 -140t244 -55q87 0 152.5 21.5t101 57.5t52 75t16.5 81q0 56 -27.5 98.5t-74.5 69t-107.5 47.5t-127.5 39t-134.5 37.5t-128 49t-107.5 68t-74.5 99t-27.5 138.5q0 167 133 272.5t336 105.5q304 0 485 -190l-102 -125q-148 164 -395 164 q-124 0 -202.5 -60.5t-78.5 -156.5q0 -49 27.5 -86t74.5 -60.5t107.5 -42.5t128 -37t134.5 -38.5t127.5 -52t107.5 -73t74.5 -105.5t27.5 -146q0 -62 -16.5 -118.5t-55 -109t-95.5 -90.5t-143.5 -61t-193.5 -23q-330 0 -524 218z" />
<glyph unicode="T" horiz-adv-x="1167" d="M66 1214v152h1036v-152h-434v-1214h-170v1214h-432z" />
<glyph unicode="U" horiz-adv-x="1433" d="M160 530v836h170v-831q0 -190 100.5 -299t286.5 -109t286.5 109t100.5 299v831h170v-834q0 -261 -142 -409t-415 -148q-272 0 -414.5 148.5t-142.5 406.5z" />
<glyph unicode="V" horiz-adv-x="1347" d="M18 1366h195l461 -1180l461 1180h194l-551 -1366h-211z" />
<glyph unicode="W" horiz-adv-x="1808" d="M29 1366h188l303 -1139l314 1139h141l313 -1139l301 1139h189l-389 -1366h-185l-301 1102l-301 -1102h-184z" />
<glyph unicode="X" horiz-adv-x="1335" d="M25 0l532 700l-502 666h207l406 -547l403 547h207l-500 -664l531 -702h-205l-436 582l-437 -582h-206z" />
<glyph unicode="Y" horiz-adv-x="1282" d="M18 1366h199l424 -635l424 635h199l-537 -788v-578h-170v578z" />
<glyph unicode="Z" horiz-adv-x="1198" d="M98 0v141l768 1073h-768v152h985v-141l-768 -1073h783v-152h-1000z" />
<glyph unicode="[" horiz-adv-x="497" d="M82 -389v1778h381v-113h-262v-1552h262v-113h-381z" />
<glyph unicode="\" horiz-adv-x="606" d="M0 1407h121l485 -1448h-121z" />
<glyph unicode="]" horiz-adv-x="497" d="M35 -276h262v1552h-262v113h381v-1778h-381v113z" />
<glyph unicode="^" horiz-adv-x="884" d="M39 682l346 684h117l344 -684h-127l-277 571l-276 -571h-127z" />
<glyph unicode="_" horiz-adv-x="1155" d="M-6 -82h1167v-113h-1167v113z" />
<glyph unicode="`" horiz-adv-x="462" d="M0 1434h160l303 -295h-117z" />
<glyph unicode="a" horiz-adv-x="1079" d="M98 303q0 80 30 144t80 102.5t110.5 59t125.5 20.5q211 0 328 -135v178q0 97 -70 153t-180 56q-174 0 -303 -138l-72 107q157 164 396 164q81 0 148.5 -19t121 -57.5t83.5 -104.5t30 -153v-680h-154v113q-126 -138 -328 -138q-87 0 -164 36t-129.5 112.5t-52.5 179.5z M256 301q0 -94 68.5 -154.5t175.5 -60.5q84 0 156.5 31.5t115.5 91.5v186q-43 60 -115.5 91.5t-156.5 31.5q-107 0 -175.5 -61t-68.5 -156z" />
<glyph unicode="b" horiz-adv-x="1177" d="M154 0v1366h153v-526q61 83 147.5 128.5t186.5 45.5q195 0 317.5 -143t122.5 -377q0 -238 -122 -378.5t-318 -140.5q-101 0 -188.5 47t-145.5 125v-147h-153zM307 268q41 -66 123.5 -110.5t171.5 -44.5q148 0 234 106.5t86 274.5t-86 275.5t-234 107.5q-88 0 -171 -46.5 t-124 -113.5v-449z" />
<glyph unicode="c" horiz-adv-x="1013" d="M96 496q0 146 61.5 263.5t174.5 186t258 68.5q229 0 362 -172l-102 -94q-95 129 -252 129q-156 0 -249 -107t-93 -274t93 -275t249 -108q155 0 252 129l102 -95q-133 -172 -362 -172q-145 0 -258 68.5t-174.5 187t-61.5 265.5z" />
<glyph unicode="d" horiz-adv-x="1177" d="M96 494q0 235 122.5 377.5t318.5 142.5q99 0 185.5 -46t147.5 -128v526h154v-1366h-154v147q-58 -78 -145 -125t-188 -47q-196 0 -318.5 140.5t-122.5 378.5zM256 494q0 -168 85.5 -274.5t231.5 -106.5q90 0 172.5 44.5t124.5 110.5v449q-43 67 -125.5 113.5t-171.5 46.5 q-146 0 -231.5 -107.5t-85.5 -275.5z" />
<glyph unicode="e" horiz-adv-x="1153" d="M96 496q0 142 62.5 260.5t174.5 188t251 69.5q146 0 255 -71t164.5 -190.5t55.5 -269.5v-39h-801q9 -145 105.5 -243.5t250.5 -98.5q86 0 167 33t139 92l73 -100q-152 -152 -393 -152q-221 0 -362.5 145t-141.5 376zM258 557h649q-1 58 -20.5 114t-57.5 105.5t-102 80 t-145 30.5q-76 0 -138 -30t-100.5 -78.5t-60.5 -105.5t-25 -116z" />
<glyph unicode="f" horiz-adv-x="579" d="M33 854v135h164v76q0 151 76.5 236t209.5 85q129 0 209 -75l-63 -101q-57 50 -123 50q-75 0 -115.5 -50.5t-40.5 -144.5v-76h201v-135h-201v-854h-153v854h-164z" />
<glyph unicode="g" horiz-adv-x="1175" d="M96 500q0 235 122 374.5t319 139.5q99 0 184.5 -45.5t146.5 -128.5v149h154v-960q0 -95 -26 -170t-69.5 -123t-105 -79.5t-128 -44.5t-142.5 -13q-132 0 -223 32t-176 115l77 115q60 -72 137 -103.5t185 -31.5q64 0 119 16.5t100.5 50.5t71.5 93t26 137v141 q-57 -79 -144 -127.5t-187 -48.5q-197 0 -319 138t-122 374zM256 500q0 -166 85.5 -271.5t231.5 -105.5q89 0 171 47.5t124 114.5v432q-41 67 -123.5 113.5t-171.5 46.5q-147 0 -232 -105t-85 -272z" />
<glyph unicode="h" horiz-adv-x="1130" d="M154 0v1366h153v-520q59 69 154.5 118.5t200.5 49.5q315 0 315 -316v-698h-154v651q0 124 -57.5 175t-165.5 51q-85 0 -165.5 -45t-127.5 -109v-723h-153z" />
<glyph unicode="i" horiz-adv-x="460" d="M127 1233q0 43 30.5 73.5t71.5 30.5q43 0 74 -30.5t31 -73.5t-31 -73t-74 -30q-41 0 -71.5 30t-30.5 73zM154 0v989h153v-989h-153z" />
<glyph unicode="j" horiz-adv-x="460" d="M-203 -328l56 117q63 -63 141 -63q73 0 116.5 44t43.5 134v1085h153v-1085q0 -146 -76 -225.5t-217 -79.5q-72 0 -119.5 17t-97.5 56zM127 1233q0 43 30.5 73.5t71.5 30.5q43 0 74 -30.5t31 -73.5t-31 -73t-74 -30q-41 0 -71.5 30t-30.5 73z" />
<glyph unicode="k" horiz-adv-x="1052" d="M154 0v1366h153v-903l520 526h195l-438 -448l440 -541h-197l-356 444l-164 -161v-283h-153z" />
<glyph unicode="l" horiz-adv-x="460" d="M154 0v1366h153v-1366h-153z" />
<glyph unicode="m" horiz-adv-x="1654" d="M154 0v989h153v-143q37 57 129 112.5t191 55.5q108 0 175.5 -51.5t90.5 -133.5q45 73 138 129t194 56q136 0 206 -75t70 -224v-715h-153v672q0 97 -45.5 151t-137.5 54q-73 0 -147.5 -45t-114.5 -107v-725h-153v672q0 205 -183 205q-72 0 -145 -45.5t-115 -108.5v-723 h-153z" />
<glyph unicode="n" horiz-adv-x="1128" d="M154 0v989h153v-143q58 69 153.5 118.5t198.5 49.5q316 0 316 -320v-694h-154v647q0 124 -57 177t-164 53q-86 0 -166.5 -45t-126.5 -109v-723h-153z" />
<glyph unicode="o" horiz-adv-x="1171" d="M96 496q0 144 59 261t171.5 187t259.5 70t259.5 -70t171 -187t58.5 -261t-58.5 -262t-171 -188.5t-259.5 -70.5t-259.5 70.5t-171.5 188.5t-59 262zM256 496q0 -160 89 -271.5t241 -111.5q102 0 177.5 54t112.5 139.5t37 189.5q0 103 -37 188t-112.5 139t-177.5 54 t-178.5 -54t-114 -139.5t-37.5 -187.5z" />
<glyph unicode="p" horiz-adv-x="1171" d="M154 -377v1366h153v-147q56 78 144.5 125t189.5 47q197 0 318.5 -139.5t121.5 -378.5q0 -237 -121.5 -379t-318.5 -142q-101 0 -187.5 45.5t-146.5 129.5v-527h-153zM307 272q41 -67 124 -113t171 -46q146 0 232 107.5t86 275.5t-86 274.5t-232 106.5q-88 0 -171 -46 t-124 -112v-447z" />
<glyph unicode="q" horiz-adv-x="1171" d="M90 496q0 239 121.5 378.5t318.5 139.5q101 0 189.5 -47.5t142.5 -124.5v147h154v-1366h-154v527q-60 -84 -146.5 -129.5t-185.5 -45.5q-197 0 -318.5 142t-121.5 379zM252 496q0 -168 84.5 -275.5t230.5 -107.5q90 0 173 46t122 113v447q-39 66 -122 112t-173 46 q-146 0 -230.5 -106.5t-84.5 -274.5z" />
<glyph unicode="r" horiz-adv-x="675" d="M154 0v989h153v-160q64 83 148.5 132t181.5 49v-158q-27 6 -62 6q-70 0 -152 -49t-116 -109v-700h-153z" />
<glyph unicode="s" horiz-adv-x="952" d="M68 131l79 111q53 -60 141 -101t185 -41q111 0 172.5 47t61.5 123q0 48 -34 81t-88 51t-119 33t-130.5 35t-119.5 49t-88 82.5t-34 127.5q0 121 99 203t270 82q222 0 366 -144l-71 -106q-46 56 -124.5 90.5t-170.5 34.5q-99 0 -159 -44.5t-60 -111.5q0 -44 34 -73 t87.5 -46t119 -31t131 -35.5t119 -52t87.5 -87t34 -134.5q0 -130 -102 -214.5t-287 -84.5q-252 0 -399 156z" />
<glyph unicode="t" horiz-adv-x="602" d="M20 854v135h164v271h154v-271h201v-135h-201v-614q0 -58 25.5 -92.5t74.5 -34.5q69 0 105 41l45 -115q-67 -64 -185 -64q-108 0 -163.5 60.5t-55.5 171.5v647h-164z" />
<glyph unicode="u" horiz-adv-x="1128" d="M154 291v698h153v-651q0 -124 57 -174.5t164 -50.5q87 0 167.5 43t125.5 106v727h154v-989h-154v139q-62 -70 -155 -117t-197 -47q-315 0 -315 316z" />
<glyph unicode="v" horiz-adv-x="1003" d="M6 989h166l330 -811l327 811h168l-411 -989h-168z" />
<glyph unicode="w" horiz-adv-x="1503" d="M25 989h159l242 -788l260 788h131l260 -788l242 788h160l-316 -989h-153l-258 795l-258 -795h-154z" />
<glyph unicode="x" horiz-adv-x="995" d="M25 0l378 508l-358 481h178l275 -377l274 377h178l-358 -481l381 -508h-178l-297 406l-297 -406h-176z" />
<glyph unicode="y" horiz-adv-x="1003" d="M6 989h166l330 -811l327 811h168l-495 -1190q-81 -197 -291 -200q-62 0 -113 14l25 139q37 -16 84 -16q54 0 88 22.5t59 81.5l66 150z" />
<glyph unicode="z" horiz-adv-x="966" d="M106 0v119l545 735h-545v135h746v-117l-549 -739h557v-133h-754z" />
<glyph unicode="{" horiz-adv-x="532" d="M10 449v102q52 0 79.5 40t27.5 101v420q0 122 77 199.5t179 77.5h125v-113h-125q-56 0 -95.5 -46.5t-39.5 -117.5v-432q0 -139 -95 -180q95 -41 95 -181v-432q0 -70 39.5 -116.5t95.5 -46.5h125v-113h-125q-102 0 -179 76.5t-77 197.5v422q0 61 -28 101.5t-79 40.5z" />
<glyph unicode="|" horiz-adv-x="432" d="M160 -41v1448h112v-1448h-112z" />
<glyph unicode="}" horiz-adv-x="532" d="M35 -276h125q56 0 95.5 46.5t39.5 116.5v432q0 141 94 181q-94 40 -94 180v432q0 71 -39.5 117.5t-95.5 46.5h-125v113h125q103 0 179.5 -77t76.5 -200v-420q0 -61 27.5 -101t78.5 -40v-102q-51 0 -78.5 -40.5t-27.5 -101.5v-422q0 -121 -76.5 -197.5t-179.5 -76.5h-125 v113z" />
<glyph unicode="~" horiz-adv-x="1030" d="M55 879q8 81 19 146.5t32.5 131t51.5 109t76 71t104 27.5q52 0 92 -21.5t63.5 -56t41.5 -76.5t32 -83.5t29 -76t38.5 -56t55.5 -21.5q134 0 168 393l115 -14q-6 -67 -15 -122t-23 -113t-35.5 -101t-50 -78t-69 -53.5t-90.5 -18.5q-60 0 -104 29t-66 72t-42.5 93.5 t-35 93.5t-41 72t-63.5 29q-36 0 -64.5 -28.5t-48.5 -82.5t-33 -122t-22 -158z" />
<glyph unicode="&#xa1;" d="M123 897q0 45 34 79t79 34t78.5 -34t33.5 -79q0 -46 -33 -79.5t-79 -33.5t-79.5 33.5t-33.5 79.5zM141 -377l31 983h127l33 -983h-191z" />
<glyph unicode="&#xa2;" horiz-adv-x="1013" d="M96 496q0 201 115.5 343.5t304.5 168.5v149h121v-145q192 -15 315 -170l-102 -94q-81 110 -213 126v-759q129 12 213 127l102 -95q-120 -155 -315 -170v-182h-121v187q-189 25 -304.5 167.5t-115.5 346.5zM256 496q0 -144 69.5 -245.5t190.5 -129.5v745 q-121 -28 -190.5 -128t-69.5 -242z" />
<glyph unicode="&#xa3;" horiz-adv-x="1060" d="M39 549v110h217q-77 89 -102 129q-56 92 -56 195q0 110 62.5 203t168 146.5t228.5 53.5q140 0 248.5 -60t165.5 -169l-137 -82q-28 69 -100 118.5t-161 49.5q-122 0 -207 -71.5t-85 -190.5q0 -43 9.5 -80.5t29.5 -72t37 -57.5t46 -58t43 -54h308v-110h-250q14 -47 14 -88 q0 -161 -156 -271q55 19 107 19q67 0 156.5 -42t146.5 -42q62 0 116 25.5t79 56.5l73 -137q-101 -97 -276 -97q-62 0 -113.5 15t-81.5 32.5t-75.5 32.5t-96.5 15q-84 0 -241 -82l-62 127q131 59 202 140t71 173q0 59 -31 123h-297z" />
<glyph unicode="&#xa5;" horiz-adv-x="1282" d="M18 1366h199l424 -635l424 635h199l-465 -682h440v-106h-512v-220h512v-108h-512v-250h-170v250h-512v108h512v220h-512v106h438z" />
<glyph unicode="&#xa7;" horiz-adv-x="958" d="M70 -6l77 100q51 -62 135 -104.5t185 -42.5q108 0 174 47.5t66 130.5q0 51 -34 86t-88 54.5t-119 35.5t-130.5 36.5t-119.5 49t-88 81.5t-34 126q0 102 67 168.5t169 93.5q-115 36 -175.5 96t-60.5 156q0 118 100 198t269 80q238 0 364 -145l-69 -92q-50 60 -128.5 91.5 t-162.5 31.5q-99 0 -161 -45t-62 -119q0 -46 34 -77.5t87.5 -48.5t119 -31.5t131 -35t119 -50.5t87.5 -86t34 -134q0 -179 -188 -262q91 -34 139.5 -93.5t48.5 -154.5q0 -140 -107 -220.5t-282 -80.5q-137 0 -228.5 42.5t-168.5 117.5zM244 610q0 -53 43.5 -90.5t86 -51.5 t134.5 -37q18 -5 27 -7q86 37 128 84.5t42 116.5q0 34 -14 62.5t-34.5 47t-54 34.5t-61.5 25t-68 19q-126 -32 -177.5 -82t-51.5 -121z" />
<glyph unicode="&#xa8;" horiz-adv-x="557" d="M-29 1237q0 38 28.5 66t68.5 28q38 0 66 -28t28 -66q0 -40 -28 -68t-66 -28q-40 0 -68.5 28t-28.5 68zM393 1237q0 38 29 66t67 28q39 0 68 -28t29 -66q0 -39 -29 -67.5t-68 -28.5t-67.5 28.5t-28.5 67.5z" />
<glyph unicode="&#xa9;" horiz-adv-x="1593" d="M90 684q0 192 95 355t258 257.5t354 94.5q144 0 275 -56t225 -150.5t150 -225.5t56 -275q0 -143 -56 -274t-150 -226t-225 -151t-275 -56q-191 0 -354 95t-258 258t-95 354zM154 684q0 -174 86.5 -322t234.5 -234.5t322 -86.5t322 86.5t234.5 234.5t86.5 322t-86.5 322 t-234.5 234.5t-322 86.5t-322 -86.5t-234.5 -234.5t-86.5 -322zM375 686q0 186 124 311t302 125q183 0 299 -135l-51 -49q-39 54 -107 85.5t-141 31.5q-143 0 -246.5 -104t-103.5 -265q0 -158 104.5 -264.5t245.5 -106.5q73 0 140.5 32.5t107.5 86.5l53 -51 q-116 -135 -301 -135q-178 0 -302 126t-124 312z" />
<glyph unicode="&#xaa;" horiz-adv-x="774" d="M84 864q0 100 68.5 155.5t160.5 55.5q136 0 219 -86v113q0 61 -46.5 97t-114.5 36q-122 0 -203 -94l-51 76q107 110 268 110q116 0 190 -55t74 -172v-432h-117v71q-81 -88 -219 -88q-91 0 -160 58t-69 155zM203 864q0 -61 43.5 -98t111.5 -37q53 0 99.5 21t74.5 57v115 q-27 36 -74 56.5t-100 20.5q-68 0 -111.5 -37.5t-43.5 -97.5z" />
<glyph unicode="&#xab;" horiz-adv-x="899" d="M61 498l328 362h154l-328 -362l328 -369h-154zM356 498l328 362h154l-328 -362l328 -369h-154z" />
<glyph unicode="&#xac;" horiz-adv-x="1032" d="M59 827v109h904v-504h-113v395h-791z" />
<glyph unicode="&#xad;" horiz-adv-x="614" d="M61 428v135h492v-135h-492z" />
<glyph unicode="&#xae;" horiz-adv-x="1011" d="M72 952q0 181 127 307.5t307 126.5q119 0 219 -57.5t157.5 -157.5t57.5 -219q0 -180 -126.5 -307t-307.5 -127q-180 0 -307 127t-127 307zM129 952q0 -156 110.5 -266.5t266.5 -110.5q155 0 265 111t110 266q0 156 -109.5 265.5t-265.5 109.5q-157 0 -267 -109t-110 -266 zM340 702v498h203q65 0 111 -42t46 -109q0 -72 -46 -110t-81 -38l134 -199h-82l-129 197h-90v-197h-66zM406 958h137q34 0 62 27t28 64q0 40 -28 67t-62 27h-137v-185z" />
<glyph unicode="&#xb0;" horiz-adv-x="593" d="M47 1137q0 103 72.5 176t175.5 73q104 0 178 -73t74 -176q0 -104 -74 -177t-178 -73q-103 0 -175.5 73t-72.5 177zM147 1137q0 -63 43.5 -107.5t104.5 -44.5q63 0 108.5 44.5t45.5 107.5q0 62 -45.5 106.5t-108.5 44.5q-61 0 -104.5 -44.5t-43.5 -106.5z" />
<glyph unicode="&#xb1;" horiz-adv-x="1021" d="M59 0v106h904v-106h-904zM59 664v106h394v424h116v-424h394v-106h-394v-439h-116v439h-394z" />
<glyph unicode="&#xb4;" horiz-adv-x="462" d="M0 1139l303 295h160l-346 -295h-117z" />
<glyph unicode="&#xb5;" horiz-adv-x="1157" d="M154 -377v1366h153v-651q0 -229 225 -229q84 0 164 44.5t125 108.5v727h154v-758q0 -55 25 -86.5t71 -31.5q23 0 39 4l12 -133q-52 -9 -82 -9q-181 0 -213 177q-56 -77 -139 -127t-174 -50q-153 0 -207 99v-451h-153z" />
<glyph unicode="&#xb6;" horiz-adv-x="919" d="M55 1014q0 146 103.5 249t249.5 103h366v-1571h-92v1479h-182v-1479h-92v867q-146 0 -249.5 103t-103.5 249z" />
<glyph unicode="&#xb7;" d="M123 500q0 46 33.5 79t79.5 33t79 -33t33 -79q0 -44 -33 -77.5t-79 -33.5t-79.5 33.5t-33.5 77.5z" />
<glyph unicode="&#xb8;" horiz-adv-x="419" d="M0 -330l39 78q71 -59 164 -59q52 0 88.5 23t36.5 63q0 33 -19.5 52t-56.5 19q-47 0 -78 -34l-68 38l64 173h92l-53 -136q33 23 76 23q59 0 97 -37.5t38 -99.5q0 -73 -61.5 -118.5t-151.5 -45.5q-63 0 -118.5 17.5t-88.5 43.5z" />
<glyph unicode="&#xba;" horiz-adv-x="829" d="M82 989q0 143 91.5 240.5t240.5 97.5q151 0 242.5 -97t91.5 -241t-91.5 -241t-242.5 -97q-149 0 -240.5 97.5t-91.5 240.5zM205 989q0 -104 56 -171.5t153 -67.5q99 0 156 67.5t57 171.5q0 103 -57 169.5t-156 66.5q-97 0 -153 -66.5t-56 -169.5z" />
<glyph unicode="&#xbb;" horiz-adv-x="899" d="M61 129l328 369l-328 362h154l328 -362l-328 -369h-154zM356 129l328 369l-328 362h154l328 -362l-328 -369h-154z" />
<glyph unicode="&#xbf;" horiz-adv-x="806" d="M63 -84q0 63 22 116t57 90.5t77 70.5t84 62t77 57.5t57 64.5t22 76q0 25 -14.5 52.5t-38.5 45.5l122 55q80 -71 80 -168q0 -53 -20.5 -97.5t-53 -77t-71.5 -61.5t-78 -57t-71.5 -56.5t-53 -67t-20.5 -82.5q0 -80 62.5 -134.5t176.5 -54.5q111 0 189 42.5t139 123.5 l100 -109q-158 -208 -442 -208q-183 0 -292.5 90.5t-109.5 226.5zM375 895q0 46 33.5 80.5t78.5 34.5q46 0 79.5 -34.5t33.5 -80.5q0 -44 -33.5 -77.5t-79.5 -33.5q-45 0 -78.5 33t-33.5 78z" />
<glyph unicode="&#xf7;" horiz-adv-x="1046" d="M59 637v106h928v-106h-928zM430 295q0 38 27 66t65 28q40 0 68 -28t28 -66t-28 -66t-68 -28q-38 0 -65 28t-27 66zM430 1077q0 40 27 67t65 27q40 0 68 -27t28 -67q0 -38 -28 -66t-68 -28q-38 0 -65 28t-27 66z" />
<glyph unicode="&#x192;" horiz-adv-x="882" d="M51 -330l189 850h-140v139h168l94 418q31 142 128 225.5t229 83.5q122 0 192 -73l-75 -125q-38 47 -103 47q-74 0 -129.5 -50t-75.5 -138l-86 -388h285v-139h-315l-189 -850h-172z" />
<glyph unicode="&#x2c6;" horiz-adv-x="542" d="M0 1139l195 295h147l201 -295h-105l-170 217l-164 -217h-104z" />
<glyph unicode="&#x2da;" horiz-adv-x="401" d="M0 1313q0 83 59 143t142 60t141.5 -59.5t58.5 -143.5q0 -83 -58.5 -142t-141.5 -59t-142 59t-59 142zM82 1313q0 -50 35 -85.5t84 -35.5q50 0 84 35.5t34 85.5q0 51 -33.5 86t-84.5 35q-50 0 -84.5 -35t-34.5 -86z" />
<glyph unicode="&#x2dc;" horiz-adv-x="641" d="M0 1147q0 123 52.5 198.5t146.5 75.5q41 0 73 -19.5t52 -47t38 -55t40 -47t49 -19.5q44 0 71 44t27 132h92q0 -123 -52.5 -198.5t-146.5 -75.5q-42 0 -74 19.5t-52 47t-37.5 55t-39.5 47t-49 19.5q-44 0 -71 -44t-27 -132h-92z" />
<glyph unicode="&#x3a9;" horiz-adv-x="1566" d="M104 713q0 195 85 349t239.5 240.5t353.5 86.5q200 0 355 -87t239 -240.5t84 -348.5q0 -192 -83.5 -333t-225.5 -228h274v-152h-491v152q68 17 130 60.5t111.5 109t79 159.5t29.5 203q0 153 -56.5 276.5t-172 199t-273.5 75.5q-119 0 -215.5 -43.5t-158 -119t-94.5 -175 t-33 -213.5q0 -109 29.5 -203t80 -159.5t112.5 -109t130 -60.5v-152h-492v152h277q-144 87 -229 228.5t-85 332.5z" />
<glyph unicode="&#x3c0;" horiz-adv-x="1191" d="M20 854v135h1151v-135h-163v-854h-154v854h-516v-854h-154v854h-164z" />
<glyph unicode="&#x401;" horiz-adv-x="1165" d="M160 0v1366h895v-152h-725v-440h710v-151h-710v-471h725v-152h-895zM299 1579q0 38 28 66t68 28q38 0 66 -28t28 -66q0 -40 -28 -68t-66 -28q-40 0 -68 28t-28 68zM721 1579q0 38 29 66t67 28t67 -28t29 -66q0 -39 -28.5 -67.5t-67.5 -28.5t-67.5 28.5t-28.5 67.5z" />
<glyph unicode="&#x402;" horiz-adv-x="1574" d="M66 1214v152h1036v-152h-434v-383q173 48 329 48q232 0 352.5 -125t120.5 -328v-16q0 -108 -35 -192.5t-96 -137t-140.5 -79t-172.5 -26.5v152q127 0 200.5 76t73.5 207v16q0 148 -81 224.5t-236 76.5q-172 0 -315 -47v-680h-170v1214h-432z" />
<glyph unicode="&#x403;" horiz-adv-x="1126" d="M160 0v1366h895v-152h-725v-1214h-170zM467 1481l303 295h160l-346 -295h-117z" />
<glyph unicode="&#x404;" horiz-adv-x="1384" d="M104 682q0 154 55 287t149 224.5t223.5 143.5t275.5 52q326 0 518 -271l-143 -80q-60 89 -160.5 144t-214.5 55q-202 0 -346.5 -128.5t-173.5 -334.5h747v-151h-751q20 -219 166.5 -357.5t357.5 -138.5q115 0 215 54.5t160 144.5l145 -80q-200 -271 -520 -271 q-146 0 -275.5 52t-223.5 143.5t-149 224.5t-55 287z" />
<glyph unicode="&#x405;" horiz-adv-x="1200" d="M78 193l100 129q76 -85 186 -140t244 -55q87 0 152.5 21.5t101 57.5t52 75t16.5 81q0 56 -27.5 98.5t-74.5 69t-107.5 47.5t-127.5 39t-134.5 37.5t-128 49t-107.5 68t-74.5 99t-27.5 138.5q0 167 133 272.5t336 105.5q304 0 485 -190l-102 -125q-148 164 -395 164 q-124 0 -202.5 -60.5t-78.5 -156.5q0 -49 27.5 -86t74.5 -60.5t107.5 -42.5t128 -37t134.5 -38.5t127.5 -52t107.5 -73t74.5 -105.5t27.5 -146q0 -62 -16.5 -118.5t-55 -109t-95.5 -90.5t-143.5 -61t-193.5 -23q-330 0 -524 218z" />
<glyph unicode="&#x406;" horiz-adv-x="489" d="M160 0v1366h170v-1366h-170z" />
<glyph unicode="&#x407;" horiz-adv-x="489" d="M-63 1579q0 38 28 66t68 28q38 0 66 -28t28 -66q0 -40 -28 -68t-66 -28q-40 0 -68 28t-28 68zM160 0v1366h170v-1366h-170zM358 1579q0 38 29 66t68 28q38 0 67 -28t29 -66q0 -39 -28.5 -67.5t-67.5 -28.5t-68 28.5t-29 67.5z" />
<glyph unicode="&#x408;" horiz-adv-x="972" d="M23 133l88 129q111 -135 258 -135q125 0 199.5 79t74.5 208v952h170v-954q0 -109 -33.5 -193.5t-92.5 -137t-137 -79.5t-171 -27q-222 0 -356 158z" />
<glyph unicode="&#x409;" horiz-adv-x="2170" d="M66 -25v152q66 0 111 21.5t85 81t68 169t49 281.5l84 686h835v-543h379q196 0 312 -118.5t116 -292.5q0 -175 -115 -293.5t-313 -118.5h-549v1214h-514l-67 -546q-16 -127 -37.5 -227t-47 -172.5t-59 -125t-68.5 -85t-80 -51t-89 -25.5t-100 -7zM1298 152h359 q121 0 196.5 72t75.5 188t-75.5 188t-196.5 72h-359v-520z" />
<glyph unicode="&#x40a;" horiz-adv-x="2170" d="M160 0v1366h170v-588h798v588h170v-588h404q124 0 217 -53.5t139.5 -141t46.5 -194.5q0 -165 -108 -277t-295 -112h-574v627h-798v-627h-170zM1298 152h383q110 0 179 65.5t69 171.5q0 105 -69 171.5t-179 66.5h-383v-475z" />
<glyph unicode="&#x40b;" horiz-adv-x="1607" d="M66 1214v152h1036v-152h-434v-383q173 48 329 48q234 0 353.5 -126t119.5 -343v-410h-170v412q0 156 -80.5 235.5t-236.5 79.5q-172 0 -315 -47v-680h-170v1214h-432z" />
<glyph unicode="&#x40c;" horiz-adv-x="1230" d="M160 0v1366h170v-707l604 707h213l-569 -649l618 -717h-211l-518 614l-137 -155v-459h-170zM506 1481l303 295h160l-346 -295h-117z" />
<glyph unicode="&#x40e;" horiz-adv-x="1282" d="M18 1366h195l428 -846l428 846h195l-596 -1124q-35 -66 -67.5 -111t-76.5 -82.5t-100 -55.5t-127 -18q-84 0 -156 31t-110 78l71 135q88 -92 187 -92q78 0 123 41t106 154l25 47zM283 1624l75 66q109 -148 285 -148q88 0 161.5 39t121.5 109l75 -66q-62 -84 -155.5 -132 t-202.5 -48q-107 0 -201.5 48t-158.5 132z" />
<glyph unicode="&#x40f;" horiz-adv-x="1458" d="M160 0v1366h170v-1214h798v1214h170v-1366h-483v-260h-170v260h-485z" />
<glyph unicode="&#x410;" horiz-adv-x="1347" d="M18 0l549 1366h211l551 -1366h-194l-121 303h-680l-121 -303h-195zM383 455h580l-289 735z" />
<glyph unicode="&#x411;" horiz-adv-x="1202" d="M160 0v1366h887v-152h-717v-391h379q196 0 312 -118.5t116 -292.5q0 -175 -115 -293.5t-313 -118.5h-549zM330 152h358q121 0 197 72t76 188t-76 188t-197 72h-358v-520z" />
<glyph unicode="&#x412;" horiz-adv-x="1288" d="M160 0v1366h608q176 0 279.5 -96t103.5 -252q0 -123 -70 -207t-170 -106q109 -17 188 -115.5t79 -220.5q0 -167 -105.5 -268t-290.5 -101h-622zM330 152h418q119 0 186 63t67 172q0 100 -66.5 168t-186.5 68h-418v-471zM330 774h409q112 0 174 61t62 158q0 96 -62 158.5 t-174 62.5h-409v-440z" />
<glyph unicode="&#x413;" horiz-adv-x="1126" d="M160 0v1366h895v-152h-725v-1214h-170z" />
<glyph unicode="&#x414;" horiz-adv-x="1480" d="M66 137q54 3 91 15.5t73.5 46.5t61.5 93t47.5 155t39.5 233l84 686h835v-1214h125v-404h-170v252h-1017v-252h-170v389zM338 152h790v1062h-514l-67 -546q-48 -393 -209 -516z" />
<glyph unicode="&#x415;" horiz-adv-x="1165" d="M160 0v1366h895v-152h-725v-440h710v-151h-710v-471h725v-152h-895z" />
<glyph unicode="&#x416;" horiz-adv-x="1861" d="M35 0l618 717l-569 649h213l549 -643v643h170v-643l551 643h213l-572 -649l621 -717h-213l-518 614l-82 -94v-520h-170v520l-82 94l-518 -614h-211z" />
<glyph unicode="&#x417;" horiz-adv-x="1196" d="M59 201l101 108q63 -81 174 -131.5t235 -50.5q161 0 252.5 68.5t91.5 187.5q0 123 -95 182.5t-259 59.5h-278v151h278q95 0 167.5 22.5t118.5 74.5t46 128q0 110 -93.5 172t-234.5 62q-232 0 -387 -166l-94 107q81 94 209 152t284 58q136 0 246 -42t177 -126t67 -196 q0 -70 -27.5 -128.5t-73 -96t-94.5 -60.5t-100 -32q39 -3 81 -17.5t84 -42.5t75 -65.5t54 -92.5t21 -118q0 -172 -142 -283t-370 -111q-172 0 -309 64t-205 162z" />
<glyph unicode="&#x418;" horiz-adv-x="1449" d="M160 0v1366h170v-1067l786 1067h174v-1366h-170v1090l-796 -1090h-164z" />
<glyph unicode="&#x419;" horiz-adv-x="1449" d="M160 0v1366h170v-1067l786 1067h174v-1366h-170v1090l-796 -1090h-164zM365 1624l75 66q109 -148 285 -148q88 0 161.5 39t121.5 109l75 -66q-62 -84 -155.5 -132t-202.5 -48q-107 0 -201.5 48t-158.5 132z" />
<glyph unicode="&#x41a;" horiz-adv-x="1230" d="M160 0v1366h170v-707l604 707h213l-569 -649l618 -717h-211l-518 614l-137 -155v-459h-170z" />
<glyph unicode="&#x41b;" horiz-adv-x="1458" d="M66 -25v152q66 0 111 21.5t85 81t68 169t49 281.5l84 686h835v-1366h-170v1214h-514l-67 -546q-16 -127 -37.5 -227t-47 -172.5t-59 -125t-68.5 -85t-80 -51t-89 -25.5t-100 -7z" />
<glyph unicode="&#x41c;" horiz-adv-x="1656" d="M160 0v1366h243l424 -1028l426 1028h244v-1366h-170v1124l-465 -1124h-69l-463 1124v-1124h-170z" />
<glyph unicode="&#x41d;" horiz-adv-x="1458" d="M160 0v1366h170v-588h798v588h170v-1366h-170v627h-798v-627h-170z" />
<glyph unicode="&#x41e;" horiz-adv-x="1566" d="M104 682q0 200 84 361t239.5 253.5t354.5 92.5q198 0 353.5 -92.5t240 -253.5t84.5 -361t-84.5 -361t-240 -253.5t-353.5 -92.5q-199 0 -354.5 92.5t-239.5 253.5t-84 361zM281 682q0 -158 60.5 -284t175.5 -198.5t265 -72.5q149 0 264.5 72.5t176.5 198.5t61 284 q0 159 -61 285t-176 198t-265 72q-227 0 -364 -156t-137 -399z" />
<glyph unicode="&#x41f;" horiz-adv-x="1458" d="M160 0v1366h1138v-1366h-170v1214h-798v-1214h-170z" />
<glyph unicode="&#x420;" horiz-adv-x="1202" d="M160 0v1366h549q198 0 313 -118.5t115 -293.5q0 -174 -116 -292.5t-312 -118.5h-379v-543h-170zM330 694h358q121 0 197 72t76 188t-76 188t-197 72h-358v-520z" />
<glyph unicode="&#x421;" horiz-adv-x="1384" d="M104 682q0 154 55 287t149 224.5t223.5 143.5t275.5 52q326 0 518 -271l-143 -80q-60 89 -160.5 144t-214.5 55q-148 0 -268 -70t-189 -197.5t-69 -287.5q0 -159 69 -286.5t189 -198t268 -70.5q115 0 215 54.5t160 144.5l145 -80q-200 -271 -520 -271q-146 0 -275.5 52 t-223.5 143.5t-149 224.5t-55 287z" />
<glyph unicode="&#x422;" horiz-adv-x="1167" d="M66 1214v152h1036v-152h-434v-1214h-170v1214h-432z" />
<glyph unicode="&#x423;" horiz-adv-x="1282" d="M18 1366h195l428 -846l428 846h195l-596 -1124q-35 -66 -67.5 -111t-76.5 -82.5t-100 -55.5t-127 -18q-84 0 -156 31t-110 78l71 135q88 -92 187 -92q78 0 123 41t106 154l25 47z" />
<glyph unicode="&#x424;" horiz-adv-x="1650" d="M104 682q0 230 170.5 378.5t464.5 168.5v137h170v-137q294 -20 465.5 -168.5t171.5 -378.5q0 -232 -171.5 -380.5t-465.5 -168.5v-133h-170v133q-295 20 -465 168t-170 381zM281 682q0 -164 121 -270t337 -125v790q-216 -19 -337 -125t-121 -270zM909 287q215 19 338 125 t123 270t-123 270t-338 125v-790z" />
<glyph unicode="&#x425;" horiz-adv-x="1335" d="M25 0l532 700l-502 666h207l406 -547l403 547h207l-500 -664l531 -702h-205l-436 582l-437 -582h-206z" />
<glyph unicode="&#x426;" horiz-adv-x="1480" d="M160 0v1366h170v-1214h798v1214h170v-1214h125v-404h-170v252h-1093z" />
<glyph unicode="&#x427;" horiz-adv-x="1251" d="M119 1012v354h170v-356q0 -156 80.5 -236t236.5 -80q173 0 316 47v625h170v-1366h-170v590q-169 -47 -330 -47q-235 0 -354 125.5t-119 343.5z" />
<glyph unicode="&#x428;" horiz-adv-x="1961" d="M160 0v1366h170v-1214h567v1214h170v-1214h565v1214h170v-1366h-1642z" />
<glyph unicode="&#x429;" horiz-adv-x="1996" d="M170 0v1366h170v-1214h567v1214h170v-1214h568v1214h170v-1214h122v-404h-170v252h-1597z" />
<glyph unicode="&#x42a;" horiz-adv-x="1540" d="M66 1214v152h602v-543h379q197 0 312.5 -118.5t115.5 -292.5q0 -175 -115 -293.5t-313 -118.5h-549v1214h-432zM668 152h358q121 0 196.5 72t75.5 188t-75.5 188t-196.5 72h-358v-520z" />
<glyph unicode="&#x42b;" horiz-adv-x="1613" d="M160 0v1366h170v-543h379q196 0 312 -118.5t116 -292.5q0 -175 -115 -293.5t-313 -118.5h-549zM330 152h358q121 0 197 72t76 188t-76 188t-197 72h-358v-520zM1284 0v1366h170v-1366h-170z" />
<glyph unicode="&#x42c;" horiz-adv-x="1202" d="M160 0v1366h170v-543h379q196 0 312 -118.5t116 -292.5q0 -175 -115 -293.5t-313 -118.5h-549zM330 152h358q121 0 197 72t76 188t-76 188t-197 72h-358v-520z" />
<glyph unicode="&#x42d;" horiz-adv-x="1384" d="M57 246l146 80q60 -90 160 -144.5t215 -54.5q211 0 357 138.5t165 357.5h-750v151h746q-29 206 -172.5 334.5t-345.5 128.5q-114 0 -214.5 -55t-160.5 -144l-144 80q192 271 519 271q146 0 275 -52t223.5 -143.5t149 -224.5t54.5 -287t-54.5 -287t-149 -224.5 t-223.5 -143.5t-275 -52q-321 0 -521 271z" />
<glyph unicode="&#x42e;" horiz-adv-x="2031" d="M160 0v1366h170v-588h243q31 269 215.5 440t458.5 171q198 0 354 -92.5t241 -253.5t85 -361t-85 -361t-241 -253.5t-354 -92.5q-142 0 -264.5 49t-209.5 135.5t-140 207t-62 260.5h-241v-627h-170zM745 682q0 -158 61 -284t176 -198.5t265 -72.5t265.5 72.5t177 198.5 t61.5 284q0 242 -139 398.5t-365 156.5q-227 0 -364.5 -156t-137.5 -399z" />
<glyph unicode="&#x42f;" horiz-adv-x="1245" d="M96 0l369 557q-149 13 -252.5 117.5t-103.5 279.5q0 187 119.5 299.5t310.5 112.5h548v-1366h-169v543h-275l-348 -543h-199zM285 954q0 -116 76 -189t196 -73h361v522h-361q-120 0 -196 -72.5t-76 -187.5z" />
<glyph unicode="&#x430;" horiz-adv-x="1079" d="M98 303q0 80 30 144t80 102.5t110.5 59t125.5 20.5q211 0 328 -135v178q0 97 -70 153t-180 56q-174 0 -303 -138l-72 107q157 164 396 164q81 0 148.5 -19t121 -57.5t83.5 -104.5t30 -153v-680h-154v113q-126 -138 -328 -138q-87 0 -164 36t-129.5 112.5t-52.5 179.5z M256 301q0 -94 68.5 -154.5t175.5 -60.5q84 0 156.5 31.5t115.5 91.5v186q-43 60 -115.5 91.5t-156.5 31.5q-107 0 -175.5 -61t-68.5 -156z" />
<glyph unicode="&#x431;" horiz-adv-x="1181" d="M96 541q0 238 59 392t171 232t288 101q159 24 219 46t60 54h149q0 -47 -25.5 -84t-62 -59.5t-93.5 -40.5t-102 -26.5t-106 -16.5q-107 -15 -183 -45.5t-122 -76t-71 -96t-39 -118.5q59 93 153.5 152t218.5 59q137 0 243.5 -70.5t163 -187.5t56.5 -258q0 -107 -33.5 -202 t-95 -166.5t-154.5 -113t-204 -41.5q-224 0 -357 158t-133 408zM256 498q0 -161 89 -273t241 -112q102 0 177.5 54t112.5 140.5t37 190.5q0 102 -37 186.5t-112.5 138.5t-177.5 54t-178.5 -54t-114 -139t-37.5 -186z" />
<glyph unicode="&#x432;" horiz-adv-x="1134" d="M154 0v989h544q129 0 204 -70t75 -184q0 -85 -46 -144t-114 -81q76 -19 128 -88.5t52 -153.5q0 -122 -76.5 -195t-211.5 -73h-555zM307 135h371q74 0 117 41t43 111q0 64 -42.5 108.5t-117.5 44.5h-371v-305zM307 575h365q70 0 108.5 38.5t38.5 99.5q0 65 -38.5 103 t-108.5 38h-365v-279z" />
<glyph unicode="&#x433;" horiz-adv-x="892" d="M154 0v989h692v-135h-539v-854h-153z" />
<glyph unicode="&#x434;" horiz-adv-x="1148" d="M37 127q50 9 82 39.5t59.5 111.5t46.5 224l64 487h688v-854h115v-387h-154v252h-748v-252h-153v379zM236 135h587v719h-399l-45 -371q-35 -263 -143 -348z" />
<glyph unicode="&#x435;" horiz-adv-x="1153" d="M96 496q0 142 62.5 260.5t174.5 188t251 69.5q146 0 255 -71t164.5 -190.5t55.5 -269.5v-39h-801q9 -145 105.5 -243.5t250.5 -98.5q86 0 167 33t139 92l73 -100q-152 -152 -393 -152q-221 0 -362.5 145t-141.5 376zM258 557h649q-1 58 -20.5 114t-57.5 105.5t-102 80 t-145 30.5q-76 0 -138 -30t-100.5 -78.5t-60.5 -105.5t-25 -116z" />
<glyph unicode="&#x436;" horiz-adv-x="1456" d="M29 0l440 541l-438 448h194l426 -436v436h154v-434l426 434h194l-440 -448l442 -541h-196l-357 444l-69 -69v-375h-154v375l-69 69l-357 -444h-196z" />
<glyph unicode="&#x437;" horiz-adv-x="1052" d="M57 137l76 99q140 -134 371 -134q132 0 211.5 47t79.5 125q0 164 -312 164h-221v125h221q130 0 211.5 42.5t81.5 123.5q0 70 -82.5 114t-206.5 44q-207 0 -331 -127l-80 94q155 158 405 158q203 2 329 -69t126 -195q0 -69 -43 -124t-101.5 -82.5t-121.5 -35.5 q46 -3 93.5 -18.5t92 -43.5t72.5 -75t28 -105q0 -127 -121.5 -208t-330.5 -81q-285 0 -447 162z" />
<glyph unicode="&#x438;" horiz-adv-x="1130" d="M154 0v989h153v-756l518 756h152v-989h-154v770l-522 -770h-147z" />
<glyph unicode="&#x439;" horiz-adv-x="1130" d="M154 0v989h153v-756l518 756h152v-989h-154v770l-522 -770h-147zM205 1282l76 66q109 -148 284 -148q88 0 161.5 39t121.5 109l76 -66q-62 -84 -156 -132t-203 -48q-107 0 -201.5 48t-158.5 132z" />
<glyph unicode="&#x43a;" horiz-adv-x="1052" d="M154 0v989h153v-526l520 526h195l-438 -448l440 -541h-197l-356 444l-164 -161v-283h-153z" />
<glyph unicode="&#x43b;" horiz-adv-x="1130" d="M37 -25v127q70 0 114.5 92t73.5 308l64 487h688v-989h-154v854h-399l-45 -371q-33 -272 -115 -390t-227 -118z" />
<glyph unicode="&#x43c;" horiz-adv-x="1316" d="M154 0v989h202l303 -733l299 733h205v-989h-153v776l-322 -776h-57l-324 776v-776h-153z" />
<glyph unicode="&#x43d;" horiz-adv-x="1130" d="M154 0v989h153v-411h516v411h154v-989h-154v442h-516v-442h-153z" />
<glyph unicode="&#x43e;" horiz-adv-x="1171" d="M96 496q0 144 59 261t171.5 187t259.5 70t259.5 -70t171 -187t58.5 -261t-58.5 -262t-171 -188.5t-259.5 -70.5t-259.5 70.5t-171.5 188.5t-59 262zM256 496q0 -160 89 -271.5t241 -111.5q102 0 177.5 54t112.5 139.5t37 189.5q0 103 -37 188t-112.5 139t-177.5 54 t-178.5 -54t-114 -139.5t-37.5 -187.5z" />
<glyph unicode="&#x43f;" horiz-adv-x="1130" d="M154 0v989h823v-989h-154v854h-516v-854h-153z" />
<glyph unicode="&#x440;" horiz-adv-x="1171" d="M154 -377v1366h153v-147q56 78 144.5 125t189.5 47q197 0 318.5 -139.5t121.5 -378.5q0 -237 -121.5 -379t-318.5 -142q-101 0 -187.5 45.5t-146.5 129.5v-527h-153zM307 272q41 -67 124 -113t171 -46q146 0 232 107.5t86 275.5t-86 274.5t-232 106.5q-88 0 -171 -46 t-124 -112v-447z" />
<glyph unicode="&#x441;" horiz-adv-x="1013" d="M96 496q0 146 61.5 263.5t174.5 186t258 68.5q229 0 362 -172l-102 -94q-95 129 -252 129q-156 0 -249 -107t-93 -274t93 -275t249 -108q155 0 252 129l102 -95q-133 -172 -362 -172q-145 0 -258 68.5t-174.5 187t-61.5 265.5z" />
<glyph unicode="&#x442;" horiz-adv-x="823" d="M47 854v135h729v-135h-289v-854h-153v854h-287z" />
<glyph unicode="&#x443;" horiz-adv-x="1003" d="M6 989h166l330 -811l327 811h168l-495 -1190q-81 -197 -291 -200q-62 0 -113 14l25 139q37 -16 84 -16q54 0 88 22.5t59 81.5l66 150z" />
<glyph unicode="&#x444;" horiz-adv-x="1634" d="M115 494q0 237 99 378.5t257 141.5q81 0 150.5 -45t119.5 -129v526h154v-524q44 78 115 125t153 47q159 0 258 -140t99 -378q0 -237 -99.5 -379t-257.5 -142q-81 0 -151 45.5t-117 129.5v-527h-154v524q-44 -77 -116 -124.5t-154 -47.5q-159 0 -257.5 140.5t-98.5 378.5z M270 494q0 -168 65.5 -274.5t178.5 -106.5q69 0 132 45.5t95 111.5v447q-32 67 -95.5 113.5t-131.5 46.5q-113 0 -178.5 -107.5t-65.5 -275.5zM895 272q32 -67 95 -113t130 -46q113 0 178.5 107.5t65.5 275.5t-65.5 274.5t-178.5 106.5q-67 0 -130 -45.5t-95 -112.5v-447z " />
<glyph unicode="&#x445;" horiz-adv-x="995" d="M25 0l378 508l-358 481h178l275 -377l274 377h178l-358 -481l381 -508h-178l-297 406l-297 -406h-176z" />
<glyph unicode="&#x446;" horiz-adv-x="1148" d="M154 0v989h153v-854h516v854h154v-854h115v-387h-154v252h-784z" />
<glyph unicode="&#x447;" horiz-adv-x="1107" d="M133 664v325h154v-278q0 -132 61 -184t191 -52q161 0 262 53v461h153v-989h-153v403q-130 -65 -301 -65q-193 0 -280 78t-87 248z" />
<glyph unicode="&#x448;" horiz-adv-x="1603" d="M154 0v989h153v-854h418v854h154v-854h417v854h154v-989h-1296z" />
<glyph unicode="&#x449;" horiz-adv-x="1634" d="M154 0v989h153v-854h418v854h154v-854h417v854h154v-854h127v-387h-154v252h-1269z" />
<glyph unicode="&#x44a;" horiz-adv-x="1249" d="M47 854v135h440v-383h371q147 0 229 -87t82 -216t-82.5 -216t-228.5 -87h-524v854h-287zM487 135h355q81 0 125.5 46t44.5 122q0 75 -44 121.5t-126 46.5h-355v-336z" />
<glyph unicode="&#x44b;" horiz-adv-x="1458" d="M154 0v989h153v-383h371q147 0 229 -87t82 -216t-82.5 -216t-228.5 -87h-524zM307 135h355q81 0 125 46t44 122q0 75 -43.5 121.5t-125.5 46.5h-355v-336zM1151 0v989h154v-989h-154z" />
<glyph unicode="&#x44c;" horiz-adv-x="1069" d="M154 0v989h153v-383h371q147 0 229 -87t82 -216t-82.5 -216t-228.5 -87h-524zM307 135h355q81 0 125 46t44 122q0 75 -43.5 121.5t-125.5 46.5h-355v-336z" />
<glyph unicode="&#x44d;" horiz-adv-x="1013" d="M61 147l99 91q102 -136 258 -136q141 0 231 90.5t105 241.5h-498v133h496q-19 147 -107.5 233.5t-226.5 86.5q-159 0 -258 -135l-99 90q133 172 363 172q146 0 259.5 -68.5t175 -186t61.5 -263.5q0 -224 -138 -372.5t-358 -148.5q-230 0 -363 172z" />
<glyph unicode="&#x44e;" horiz-adv-x="1570" d="M154 0v989h153v-411h193q25 191 155 313.5t328 122.5q148 0 261 -70t172 -187t59 -261t-59 -262t-172.5 -188.5t-260.5 -70.5q-206 0 -338 132.5t-147 334.5h-191v-442h-153zM655 496q0 -103 37.5 -189t113.5 -140t177 -54q153 0 241.5 111.5t88.5 271.5q0 159 -88.5 270 t-241.5 111q-101 0 -177 -54t-113.5 -139.5t-37.5 -187.5z" />
<glyph unicode="&#x44f;" horiz-adv-x="1120" d="M121 0l264 389q-112 14 -183 94.5t-71 202.5q0 131 83.5 217t229.5 86h523v-989h-154v383h-270l-242 -383h-180zM289 686q0 -76 44.5 -122t127.5 -46h352v336h-352q-80 0 -126 -46.5t-46 -121.5z" />
<glyph unicode="&#x451;" horiz-adv-x="1153" d="M96 496q0 142 62.5 260.5t174.5 188t251 69.5q146 0 255 -71t164.5 -190.5t55.5 -269.5v-39h-801q9 -145 105.5 -243.5t250.5 -98.5q86 0 167 33t139 92l73 -100q-152 -152 -393 -152q-221 0 -362.5 145t-141.5 376zM258 557h649q-1 58 -20.5 114t-57.5 105.5t-102 80 t-145 30.5q-76 0 -138 -30t-100.5 -78.5t-60.5 -105.5t-25 -116zM276 1237q0 38 28.5 66t68.5 28q38 0 66 -28t28 -66q0 -40 -28 -68t-66 -28q-40 0 -68.5 28t-28.5 68zM698 1237q0 38 29 66t68 28q38 0 67 -28t29 -66q0 -39 -28.5 -67.5t-67.5 -28.5t-68 28.5t-29 67.5z " />
<glyph unicode="&#x452;" horiz-adv-x="1134" d="M18 1096v98h140v172h153v-172h322v-98h-322v-250q59 69 154.5 118.5t200.5 49.5q315 0 315 -316v-794q0 -147 -76.5 -226t-218.5 -79q-72 0 -119.5 17t-95.5 56l53 117q63 -63 142 -63q73 0 117 44t44 134v747q0 124 -57.5 175t-165.5 51q-85 0 -165.5 -45t-127.5 -109 v-723h-153v1096h-140z" />
<glyph unicode="&#x453;" horiz-adv-x="892" d="M154 0v989h692v-135h-539v-854h-153zM385 1139l303 295h160l-346 -295h-117z" />
<glyph unicode="&#x454;" horiz-adv-x="1013" d="M96 496q0 146 61.5 263.5t174.5 186t258 68.5q229 0 362 -172l-98 -90q-99 135 -256 135q-139 0 -229 -86.5t-109 -233.5h498v-133h-500q18 -152 107.5 -242t232.5 -90q154 0 256 136l98 -91q-133 -172 -362 -172q-145 0 -258 68.5t-174.5 187t-61.5 265.5z" />
<glyph unicode="&#x455;" horiz-adv-x="952" d="M68 131l79 111q53 -60 141 -101t185 -41q111 0 172.5 47t61.5 123q0 48 -34 81t-88 51t-119 33t-130.5 35t-119.5 49t-88 82.5t-34 127.5q0 121 99 203t270 82q222 0 366 -144l-71 -106q-46 56 -124.5 90.5t-170.5 34.5q-99 0 -159 -44.5t-60 -111.5q0 -44 34 -73 t87.5 -46t119 -31t131 -35.5t119 -52t87.5 -87t34 -134.5q0 -130 -102 -214.5t-287 -84.5q-252 0 -399 156z" />
<glyph unicode="&#x456;" horiz-adv-x="460" d="M127 1233q0 43 30.5 73.5t71.5 30.5q43 0 74 -30.5t31 -73.5t-31 -73t-74 -30q-41 0 -71.5 30t-30.5 73zM154 0v989h153v-989h-153z" />
<glyph unicode="&#x457;" horiz-adv-x="460" d="M-76 1237q0 38 28 66t68 28q38 0 66.5 -28t28.5 -66q0 -39 -28.5 -67.5t-66.5 -28.5q-40 0 -68 28t-28 68zM154 0v989h153v-989h-153zM346 1237q0 38 29 66t67 28q39 0 68 -28t29 -66q0 -39 -29 -67.5t-68 -28.5t-67.5 28.5t-28.5 67.5z" />
<glyph unicode="&#x458;" horiz-adv-x="460" d="M-203 -328l56 117q63 -63 141 -63q73 0 116.5 44t43.5 134v1085h153v-1085q0 -146 -76 -225.5t-217 -79.5q-72 0 -119.5 17t-97.5 56zM127 1233q0 43 30.5 73.5t71.5 30.5q43 0 74 -30.5t31 -73.5t-31 -73t-74 -30q-41 0 -71.5 30t-30.5 73z" />
<glyph unicode="&#x459;" horiz-adv-x="1738" d="M37 -25v127q70 0 114.5 92t73.5 308l64 487h688v-383h369q148 0 230.5 -87t82.5 -216t-82.5 -216t-230.5 -87h-523v854h-399l-45 -371q-33 -272 -115 -390t-227 -118zM977 135h354q81 0 125.5 46t44.5 122q0 75 -44.5 121.5t-125.5 46.5h-354v-336z" />
<glyph unicode="&#x45a;" horiz-adv-x="1738" d="M154 0v989h153v-411h516v411h154v-411h385q140 0 218.5 -83t78.5 -208q0 -122 -78.5 -204.5t-218.5 -82.5h-539v442h-516v-442h-153zM977 135h369q73 0 114 42t41 110q0 70 -40.5 112.5t-114.5 42.5h-369v-307z" />
<glyph unicode="&#x45b;" horiz-adv-x="1134" d="M18 1096v98h140v172h153v-172h320v-98h-320v-250q59 69 154.5 118.5t200.5 49.5q315 0 315 -316v-698h-154v651q0 124 -57.5 175t-165.5 51q-85 0 -165.5 -45t-127.5 -109v-723h-153v1096h-140z" />
<glyph unicode="&#x45c;" horiz-adv-x="1052" d="M154 0v989h153v-526l520 526h195l-438 -448l440 -541h-197l-356 444l-164 -161v-283h-153zM414 1139l303 295h160l-347 -295h-116z" />
<glyph unicode="&#x45e;" horiz-adv-x="1003" d="M6 989h166l330 -811l327 811h168l-495 -1190q-81 -197 -291 -200q-62 0 -113 14l25 139q37 -16 84 -16q54 0 88 22.5t59 81.5l66 150zM143 1282l76 66q109 -148 285 -148q88 0 161 39t121 109l76 -66q-62 -84 -155.5 -132t-202.5 -48q-108 0 -202.5 48t-158.5 132z" />
<glyph unicode="&#x45f;" horiz-adv-x="1130" d="M154 0v989h153v-854h516v854h154v-989h-334v-258h-154v258h-335z" />
<glyph unicode="&#x490;" horiz-adv-x="1126" d="M160 0v1366h725v252h170v-404h-725v-1214h-170z" />
<glyph unicode="&#x491;" horiz-adv-x="892" d="M154 0v989h538v258h154v-393h-539v-854h-153z" />
<glyph unicode="&#x2000;" horiz-adv-x="888" />
<glyph unicode="&#x2001;" horiz-adv-x="1776" />
<glyph unicode="&#x2002;" horiz-adv-x="888" />
<glyph unicode="&#x2003;" horiz-adv-x="1776" />
<glyph unicode="&#x2004;" horiz-adv-x="592" />
<glyph unicode="&#x2005;" horiz-adv-x="444" />
<glyph unicode="&#x2006;" horiz-adv-x="296" />
<glyph unicode="&#x2007;" horiz-adv-x="296" />
<glyph unicode="&#x2008;" horiz-adv-x="222" />
<glyph unicode="&#x2009;" horiz-adv-x="355" />
<glyph unicode="&#x200a;" horiz-adv-x="98" />
<glyph unicode="&#x2010;" horiz-adv-x="614" d="M61 428v135h492v-135h-492z" />
<glyph unicode="&#x2011;" horiz-adv-x="614" d="M61 428v135h492v-135h-492z" />
<glyph unicode="&#x2012;" horiz-adv-x="614" d="M61 428v135h492v-135h-492z" />
<glyph unicode="&#x2013;" horiz-adv-x="1214" d="M61 428v135h1092v-135h-1092z" />
<glyph unicode="&#x2014;" horiz-adv-x="1705" d="M61 428v135h1584v-135h-1584z" />
<glyph unicode="&#x2018;" d="M96 1079q0 90 46.5 171.5t119.5 135.5l76 -61q-50 -32 -87.5 -86.5t-43.5 -103.5q1 0 11 1t15 1q43 0 72 -30t29 -75q0 -44 -32.5 -76t-76.5 -32q-54 0 -91.5 41.5t-37.5 113.5z" />
<glyph unicode="&#x2019;" d="M117 985q50 33 88.5 87.5t44.5 103.5q-10 -5 -29 -5q-43 0 -70.5 29.5t-27.5 75.5q0 45 31.5 77.5t76.5 32.5q54 0 91.5 -41.5t37.5 -113.5q0 -90 -46.5 -173t-120.5 -136z" />
<glyph unicode="&#x201a;" d="M117 -197q51 33 89 87t44 104q-8 -4 -29 -4q-43 0 -70.5 29t-27.5 75q0 45 31.5 78t76.5 33q53 0 91 -42.5t38 -113.5q0 -90 -46.5 -173t-120.5 -136z" />
<glyph unicode="&#x201c;" horiz-adv-x="798" d="M111 1079q0 91 46 172.5t119 134.5l76 -61q-51 -33 -89 -87t-42 -103l11 1q10 1 16 1q43 0 70.5 -29.5t27.5 -75.5q0 -45 -31.5 -76.5t-76.5 -31.5q-54 0 -90.5 41.5t-36.5 113.5zM438 1079q0 90 46 172t120 135l76 -61q-50 -32 -87.5 -86.5t-43.5 -103.5l10 1q10 1 16 1 q43 0 72 -30t29 -75q0 -44 -32.5 -76t-78.5 -32q-54 0 -90.5 41.5t-36.5 113.5z" />
<glyph unicode="&#x201d;" horiz-adv-x="798" d="M117 985q50 33 88.5 87.5t44.5 103.5q-10 -5 -29 -5q-43 0 -70.5 29.5t-27.5 75.5q0 45 31.5 77.5t76.5 32.5q54 0 91.5 -41.5t37.5 -113.5q0 -90 -46.5 -173t-120.5 -136zM446 985q50 33 88 87.5t44 103.5q-10 -5 -27 -5q-43 0 -71.5 29.5t-28.5 75.5q0 44 32 77t76 33 q54 0 91.5 -41.5t37.5 -113.5q0 -90 -46.5 -172.5t-119.5 -136.5z" />
<glyph unicode="&#x201e;" horiz-adv-x="798" d="M117 -197q51 33 89 87t44 104q-8 -4 -29 -4q-43 0 -70.5 29t-27.5 75q0 45 31.5 78t76.5 33q53 0 91 -42.5t38 -113.5q0 -90 -46.5 -173t-120.5 -136zM446 -197q50 33 88 87t44 104q-8 -4 -27 -4q-43 0 -71.5 29.5t-28.5 74.5t32 78t76 33q53 0 91 -42.5t38 -113.5 q0 -90 -46.5 -172.5t-119.5 -136.5z" />
<glyph unicode="&#x2020;" horiz-adv-x="538" d="M47 1087v89l182 -7l-10 217h98l-8 -217l183 7v-89l-183 9l8 -426h-98l10 426z" />
<glyph unicode="&#x2021;" horiz-adv-x="538" d="M47 580v88l180 -9v437l-180 -9v89l180 -7l-8 217h98l-8 -217l183 7v-89l-183 9v-437l183 9v-88l-183 6l8 -217h-98l8 217z" />
<glyph unicode="&#x2022;" horiz-adv-x="733" d="M147 496q0 91 65.5 156t156.5 65t156 -65t65 -156q0 -90 -65 -155t-156 -65t-156.5 65.5t-65.5 154.5z" />
<glyph unicode="&#x2026;" horiz-adv-x="1413" d="M123 92q0 46 32.5 79.5t77.5 33.5q46 0 79.5 -33.5t33.5 -79.5q0 -44 -34 -78t-79 -34t-77.5 33.5t-32.5 78.5zM594 92q0 46 32.5 79.5t78.5 33.5t80 -33.5t34 -79.5q0 -44 -34 -78t-80 -34q-45 0 -78 33.5t-33 78.5zM1065 92q0 46 33.5 79.5t79.5 33.5t79 -33.5 t33 -79.5q0 -45 -33.5 -78.5t-78.5 -33.5q-46 0 -79.5 34t-33.5 78z" />
<glyph unicode="&#x202f;" horiz-adv-x="355" />
<glyph unicode="&#x2030;" horiz-adv-x="2217" d="M63 1047q0 146 91.5 242.5t236.5 96.5q146 0 239 -96.5t93 -242.5q0 -144 -93 -239t-239 -95q-145 0 -236.5 95t-91.5 239zM186 1047q0 -102 57.5 -170t147.5 -68q91 0 150 68t59 170q0 105 -58.5 174t-150.5 69q-90 0 -147.5 -69t-57.5 -174zM262 0l873 1366h112 l-874 -1366h-111zM776 309q0 146 91.5 243t236.5 97t237.5 -97t92.5 -243q0 -144 -92.5 -239t-237.5 -95t-236.5 95t-91.5 239zM897 309q0 -102 58 -169.5t149 -67.5q92 0 150.5 67.5t58.5 169.5q0 105 -58.5 174.5t-150.5 69.5q-91 0 -149 -69.5t-58 -174.5zM1497 309 q0 146 91.5 243t236.5 97t237 -97t92 -243q0 -144 -92 -239t-237 -95t-236.5 95t-91.5 239zM1620 309q0 -103 57 -170t148 -67q92 0 150.5 67.5t58.5 169.5q0 105 -58.5 174.5t-150.5 69.5q-91 0 -148 -69t-57 -175z" />
<glyph unicode="&#x2039;" horiz-adv-x="604" d="M61 498l328 362h154l-328 -362l328 -369h-154z" />
<glyph unicode="&#x203a;" horiz-adv-x="604" d="M61 129l328 369l-328 362h154l328 -362l-328 -369h-154z" />
<glyph unicode="&#x2044;" horiz-adv-x="282" d="M-352 0l872 1366h115l-875 -1366h-112z" />
<glyph unicode="&#x205f;" horiz-adv-x="444" />
<glyph unicode="&#x20ac;" horiz-adv-x="1423" d="M63 485v107h89q-5 72 -5 90q0 16 5 94h-89v107h109q61 230 246.5 368t431.5 138q326 0 518 -271l-143 -80q-60 89 -160.5 144t-214.5 55q-174 0 -307 -96t-189 -258h621v-107h-645q-6 -46 -6 -94q0 -46 6 -90h645v-107h-621q54 -163 188 -260.5t308 -97.5q115 0 215 54.5 t160 144.5l145 -80q-200 -271 -520 -271q-248 0 -433 138.5t-245 371.5h-109z" />
<glyph unicode="&#x2122;" horiz-adv-x="929" d="M35 1313v53h311v-53h-127v-398h-57v398h-127zM420 915v451h88l131 -328l131 328h88v-451h-57v373l-154 -373h-16l-154 373v-373h-57z" />
<glyph unicode="&#x2202;" horiz-adv-x="1171" d="M96 479q0 139 56.5 253.5t160.5 181.5t234 67q202 0 317 -168q-62 138 -194.5 266.5t-315.5 218.5l115 95q93 -48 178 -112t164 -148.5t137 -179t92.5 -209.5t34.5 -234q0 -235 -133.5 -385t-355.5 -150q-147 0 -259.5 68t-171.5 182t-59 254zM256 479q0 -100 37.5 -182 t114 -133t178.5 -51q152 0 239.5 105.5t87.5 260.5q0 98 -37 180t-112.5 133.5t-177.5 51.5q-152 0 -241 -106.5t-89 -258.5z" />
<glyph unicode="&#x2206;" horiz-adv-x="1347" d="M18 0l549 1366h211l551 -1366h-1311zM262 152h823l-411 1038z" />
<glyph unicode="&#x220f;" horiz-adv-x="1447" d="M66 1214v152h1316v-152h-223v-1398h-170v1398h-530v-1398h-170v1398h-223z" />
<glyph unicode="&#x2211;" horiz-adv-x="1177" d="M111 -33l473 641l-471 606v152h954v-152h-745l469 -604l-476 -643h752v-151h-956v151z" />
<glyph unicode="&#x221a;" horiz-adv-x="1484" d="M135 647l422 162l260 -649l481 1206h121l-545 -1366h-118l-267 670l-317 -125z" />
<glyph unicode="&#x221e;" horiz-adv-x="1343" d="M59 686q0 64 19 123t56 108t99 78t142 29q98 0 175 -63t120 -160q47 98 124 160.5t175 62.5q80 0 142 -29.5t99 -78.5t55.5 -107.5t18.5 -122.5q0 -63 -18.5 -121.5t-55.5 -108t-99 -79t-142 -29.5q-98 0 -175 62.5t-124 160.5q-43 -97 -120 -160t-175 -63 q-64 0 -117.5 19.5t-89.5 52.5t-61 77t-36.5 91.5t-11.5 97.5zM174 686q0 -101 57.5 -166t155.5 -65q79 0 139 66.5t97 164.5q-38 99 -97.5 165.5t-138.5 66.5q-98 0 -155.5 -65t-57.5 -167zM723 686q35 -97 95 -163t140 -66q98 0 154.5 63.5t56.5 165.5t-56.5 167 t-154.5 65q-79 0 -139.5 -67t-95.5 -165z" />
<glyph unicode="&#x222b;" horiz-adv-x="712" d="M35 -92h125q56 0 95.5 47t39.5 117v1224q0 122 77 199.5t179 77.5h127v-113h-127q-56 0 -95.5 -46.5t-39.5 -117.5v-1226q0 -121 -76.5 -198t-179.5 -77h-125v113z" />
<glyph unicode="&#x2248;" horiz-adv-x="1021" d="M59 432v121q98 -68 226 -68q54 0 99.5 12.5t80 29.5t70 34.5t86.5 30t114 12.5q124 0 228 -55v-121q-101 70 -228 70q-66 0 -122.5 -19t-92.5 -41.5t-98 -41.5t-137 -19q-132 0 -226 55zM59 819v119q103 -68 226 -68q65 0 121.5 19t92 41.5t98 41.5t138.5 19 q124 0 228 -55v-121q-98 68 -228 68q-55 0 -100.5 -12.5t-80 -29.5t-70 -34.5t-86.5 -30t-113 -12.5q-127 0 -226 55z" />
<glyph unicode="&#x2260;" horiz-adv-x="1021" d="M59 432v107h303l185 288h-488v109h557l152 240h113l-154 -240h236v-109h-304l-184 -288h488v-107h-557l-154 -242h-111l154 242h-236z" />
<glyph unicode="&#x2264;" horiz-adv-x="1021" d="M59 0v106h904v-106h-904zM59 649v109l904 448v-129l-773 -375l773 -372v-127z" />
<glyph unicode="&#x2265;" horiz-adv-x="1021" d="M57 0v106h904v-106h-904zM57 203v127l772 372l-772 375v129l904 -448v-109z" />
<glyph unicode="&#x25ca;" horiz-adv-x="768" d="M39 684l323 682h44l323 -682l-323 -684h-44zM113 684l272 -600l270 600l-272 598z" />
<glyph unicode="&#x25fc;" horiz-adv-x="993" d="M0 0v993h993v-993h-993z" />
<glyph unicode="&#xf8ff;" horiz-adv-x="1366" d="M86 315q0 94 66.5 161t160.5 67h150v280h-148q-94 0 -161.5 68t-67.5 162t67.5 160.5t161.5 66.5t161 -66.5t67 -160.5v-154h280v154q0 93 68 160t162 67t160.5 -66.5t66.5 -160.5t-67 -162t-160 -68h-150v-280h150q94 0 160.5 -67t66.5 -161t-66.5 -161.5t-160.5 -67.5 t-162 67.5t-68 161.5v152h-280v-152q0 -94 -68 -161.5t-162 -67.5t-160.5 67.5t-66.5 161.5zM164 315q0 -63 43 -108t106 -45t106.5 45t43.5 108v152h-152q-63 0 -105 -44.5t-42 -107.5zM164 1053q0 -63 44 -108.5t107 -45.5h148v154q0 63 -42.5 107t-105.5 44t-107 -44 t-44 -107zM543 543h280v280h-280v-280zM903 315q0 -63 43.5 -108t106.5 -45q62 0 104.5 44.5t42.5 108.5t-41.5 108t-105.5 44h-150v-152zM903 899h150q62 0 104.5 45t42.5 109q0 63 -42 107t-105 44t-106.5 -44t-43.5 -107v-154z" />
<hkern g1="afii10092,afii10094,afii10106,afii10107" 	g2="dagger" 	k="158" />
<hkern g1="afii10092,afii10094,afii10106,afii10107" 	g2="daggerdbl" 	k="41" />
<hkern g1="afii10092,afii10094,afii10106,afii10107" 	g2="question" 	k="88" />
<hkern g1="afii10092,afii10094,afii10106,afii10107" 	g2="quotedbl,quotesingle,registered,quoteleft,quoteright,quotedblleft,quotedblright,trademark" 	k="164" />
<hkern g1="afii10092,afii10094,afii10106,afii10107" 	g2="afii10084,afii10092" 	k="88" />
<hkern g1="afii10092,afii10094,afii10106,afii10107" 	g2="C,G,O,Q,afii10053,afii10032,afii10035,afii10038" 	k="61" />
<hkern g1="afii10092,afii10094,afii10106,afii10107" 	g2="asterisk" 	k="131" />
<hkern g1="afii10092,afii10094,afii10106,afii10107" 	g2="U" 	k="18" />
<hkern g1="afii10092,afii10094,afii10106,afii10107" 	g2="T,afii10051,afii10060,afii10036,afii10041,afii10044" 	k="205" />
<hkern g1="afii10092,afii10094,afii10106,afii10107" 	g2="W" 	k="102" />
<hkern g1="afii10092,afii10094,afii10106,afii10107" 	g2="V" 	k="111" />
<hkern g1="afii10092,afii10094,afii10106,afii10107" 	g2="Y" 	k="141" />
<hkern g1="afii10092,afii10094,afii10106,afii10107" 	g2="bullet" 	k="20" />
<hkern g1="B,afii10018,afii10019,afii10025" 	g2="quotedbl,quotesingle,registered,quoteleft,quoteright,quotedblleft,quotedblright,trademark" 	k="20" />
<hkern g1="B,afii10018,afii10019,afii10025" 	g2="T,afii10051,afii10060,afii10036,afii10041,afii10044" 	k="35" />
<hkern g1="B,afii10018,afii10019,afii10025" 	g2="W" 	k="20" />
<hkern g1="B,afii10018,afii10019,afii10025" 	g2="V" 	k="27" />
<hkern g1="B,afii10018,afii10019,afii10025" 	g2="Y" 	k="61" />
<hkern g1="B,afii10018,afii10019,afii10025" 	g2="afii10069,afii10077,afii10106" 	k="20" />
<hkern g1="afii10067,afii10073" 	g2="question" 	k="88" />
<hkern g1="afii10067,afii10073" 	g2="T,afii10051,afii10060,afii10036,afii10041,afii10044" 	k="115" />
<hkern g1="afii10067,afii10073" 	g2="V" 	k="41" />
<hkern g1="afii10067,afii10073" 	g2="Y" 	k="82" />
<hkern g1="C,afii10053,afii10035" 	g2="question" 	k="6" />
<hkern g1="C,afii10053,afii10035" 	g2="W" 	k="6" />
<hkern g1="C,afii10053,afii10035" 	g2="V" 	k="4" />
<hkern g1="C,afii10053,afii10035" 	g2="Y" 	k="33" />
<hkern g1="C,afii10053,afii10035" 	g2="afii10069,afii10077,afii10106" 	k="6" />
<hkern g1="C,afii10053,afii10035" 	g2="A,afii10058,afii10017,afii10021,afii10029,uni2206" 	k="6" />
<hkern g1="D,O,Q,afii10032,afii10038,afii10047,afii10048" 	g2="question" 	k="33" />
<hkern g1="D,O,Q,afii10032,afii10038,afii10047,afii10048" 	g2="quotedbl,quotesingle,registered,quoteleft,quoteright,quotedblleft,quotedblright,trademark" 	k="20" />
<hkern g1="D,O,Q,afii10032,afii10038,afii10047,afii10048" 	g2="J,afii10057" 	k="41" />
<hkern g1="D,O,Q,afii10032,afii10038,afii10047,afii10048" 	g2="T,afii10051,afii10060,afii10036,afii10041,afii10044" 	k="55" />
<hkern g1="D,O,Q,afii10032,afii10038,afii10047,afii10048" 	g2="W" 	k="41" />
<hkern g1="D,O,Q,afii10032,afii10038,afii10047,afii10048" 	g2="V" 	k="41" />
<hkern g1="D,O,Q,afii10032,afii10038,afii10047,afii10048" 	g2="Y" 	k="82" />
<hkern g1="D,O,Q,afii10032,afii10038,afii10047,afii10048" 	g2="afii10069,afii10077,afii10106" 	k="61" />
<hkern g1="D,O,Q,afii10032,afii10038,afii10047,afii10048" 	g2="A,afii10058,afii10017,afii10021,afii10029,uni2206" 	k="76" />
<hkern g1="D,O,Q,afii10032,afii10038,afii10047,afii10048" 	g2="Z" 	k="35" />
<hkern g1="D,O,Q,afii10032,afii10038,afii10047,afii10048" 	g2="comma,period,quotesinglbase,quotedblbase,ellipsis" 	k="55" />
<hkern g1="D,O,Q,afii10032,afii10038,afii10047,afii10048" 	g2="X,afii10062,afii10024,afii10037,afii10039" 	k="61" />
<hkern g1="F" 	g2="J,afii10057" 	k="121" />
<hkern g1="F" 	g2="afii10069,afii10077,afii10106" 	k="80" />
<hkern g1="F" 	g2="A,afii10058,afii10017,afii10021,afii10029,uni2206" 	k="74" />
<hkern g1="F" 	g2="comma,period,quotesinglbase,quotedblbase,ellipsis" 	k="102" />
<hkern g1="F" 	g2="ampersand" 	k="12" />
<hkern g1="G" 	g2="question" 	k="12" />
<hkern g1="G" 	g2="T,afii10051,afii10060,afii10036,afii10041,afii10044" 	k="6" />
<hkern g1="G" 	g2="W" 	k="6" />
<hkern g1="G" 	g2="V" 	k="12" />
<hkern g1="G" 	g2="Y" 	k="18" />
<hkern g1="G" 	g2="A,afii10058,afii10017,afii10021,afii10029,uni2206" 	k="6" />
<hkern g1="G" 	g2="X,afii10062,afii10024,afii10037,afii10039" 	k="6" />
<hkern g1="K,afii10061,afii10024,afii10028" 	g2="afii10084,afii10092" 	k="109" />
<hkern g1="K,afii10061,afii10024,afii10028" 	g2="C,G,O,Q,afii10053,afii10032,afii10035,afii10038" 	k="111" />
<hkern g1="K,afii10061,afii10024,afii10028" 	g2="Y" 	k="43" />
<hkern g1="K,afii10061,afii10024,afii10028" 	g2="f,uniFB01,uniFB02" 	k="53" />
<hkern g1="K,afii10061,afii10024,afii10028" 	g2="u,uni00B5" 	k="41" />
<hkern g1="K,afii10061,afii10024,afii10028" 	g2="t" 	k="80" />
<hkern g1="K,afii10061,afii10024,afii10028" 	g2="w,afii10089" 	k="82" />
<hkern g1="K,afii10061,afii10024,afii10028" 	g2="v" 	k="123" />
<hkern g1="K,afii10061,afii10024,afii10028" 	g2="y,afii10085,afii10110" 	k="123" />
<hkern g1="K,afii10061,afii10024,afii10028" 	g2="hyphen,periodcentered,endash,emdash" 	k="102" />
<hkern g1="K,afii10061,afii10024,afii10028" 	g2="a,afii10065" 	k="35" />
<hkern g1="K,afii10061,afii10024,afii10028" 	g2="c,d,e,g,o,q,cent,afii10066,afii10070,afii10080,afii10083,afii10086,afii10071,afii10101" 	k="70" />
<hkern g1="K,afii10061,afii10024,afii10028" 	g2="x,afii10072,afii10087" 	k="53" />
<hkern g1="L" 	g2="dagger" 	k="266" />
<hkern g1="L" 	g2="daggerdbl" 	k="207" />
<hkern g1="L" 	g2="question" 	k="233" />
<hkern g1="L" 	g2="quotedbl,quotesingle,registered,quoteleft,quoteright,quotedblleft,quotedblright,trademark" 	k="250" />
<hkern g1="L" 	g2="afii10084,afii10092" 	k="158" />
<hkern g1="L" 	g2="C,G,O,Q,afii10053,afii10032,afii10035,afii10038" 	k="70" />
<hkern g1="L" 	g2="asterisk" 	k="356" />
<hkern g1="L" 	g2="U" 	k="55" />
<hkern g1="L" 	g2="T,afii10051,afii10060,afii10036,afii10041,afii10044" 	k="205" />
<hkern g1="L" 	g2="W" 	k="135" />
<hkern g1="L" 	g2="V" 	k="184" />
<hkern g1="L" 	g2="Y" 	k="252" />
<hkern g1="L" 	g2="u,uni00B5" 	k="29" />
<hkern g1="L" 	g2="t" 	k="68" />
<hkern g1="L" 	g2="w,afii10089" 	k="76" />
<hkern g1="L" 	g2="v" 	k="117" />
<hkern g1="L" 	g2="y,afii10085,afii10110" 	k="117" />
<hkern g1="L" 	g2="ampersand" 	k="14" />
<hkern g1="L" 	g2="a,afii10065" 	k="29" />
<hkern g1="L" 	g2="c,d,e,g,o,q,cent,afii10066,afii10070,afii10080,afii10083,afii10086,afii10071,afii10101" 	k="43" />
<hkern g1="P,afii10034" 	g2="J,afii10057" 	k="223" />
<hkern g1="P,afii10034" 	g2="Y" 	k="6" />
<hkern g1="P,afii10034" 	g2="afii10069,afii10077,afii10106" 	k="164" />
<hkern g1="P,afii10034" 	g2="A,afii10058,afii10017,afii10021,afii10029,uni2206" 	k="158" />
<hkern g1="P,afii10034" 	g2="comma,period,quotesinglbase,quotedblbase,ellipsis" 	k="193" />
<hkern g1="P,afii10034" 	g2="X,afii10062,afii10024,afii10037,afii10039" 	k="18" />
<hkern g1="P,afii10034" 	g2="ampersand" 	k="53" />
<hkern g1="P,afii10034" 	g2="hyphen,periodcentered,endash,emdash" 	k="70" />
<hkern g1="P,afii10034" 	g2="a,afii10065" 	k="41" />
<hkern g1="P,afii10034" 	g2="c,d,e,g,o,q,cent,afii10066,afii10070,afii10080,afii10083,afii10086,afii10071,afii10101" 	k="27" />
<hkern g1="R" 	g2="quotedbl,quotesingle,registered,quoteleft,quoteright,quotedblleft,quotedblright,trademark" 	k="6" />
<hkern g1="R" 	g2="T,afii10051,afii10060,afii10036,afii10041,afii10044" 	k="20" />
<hkern g1="R" 	g2="V" 	k="20" />
<hkern g1="R" 	g2="Y" 	k="33" />
<hkern g1="R" 	g2="ampersand" 	k="6" />
<hkern g1="R" 	g2="a,afii10065" 	k="41" />
<hkern g1="R" 	g2="c,d,e,g,o,q,cent,afii10066,afii10070,afii10080,afii10083,afii10086,afii10071,afii10101" 	k="61" />
<hkern g1="R" 	g2="s,afii10073,afii10095,afii10102" 	k="12" />
<hkern g1="S,afii10054" 	g2="afii10084,afii10092" 	k="12" />
<hkern g1="S,afii10054" 	g2="T,afii10051,afii10060,afii10036,afii10041,afii10044" 	k="12" />
<hkern g1="S,afii10054" 	g2="Y" 	k="20" />
<hkern g1="S,afii10054" 	g2="t" 	k="35" />
<hkern g1="S,afii10054" 	g2="w,afii10089" 	k="6" />
<hkern g1="S,afii10054" 	g2="v" 	k="12" />
<hkern g1="S,afii10054" 	g2="y,afii10085,afii10110" 	k="12" />
<hkern g1="S,afii10054" 	g2="A,afii10058,afii10017,afii10021,afii10029,uni2206" 	k="20" />
<hkern g1="S,afii10054" 	g2="x,afii10072,afii10087" 	k="27" />
<hkern g1="T,afii10052,afii10020,afii10036,afii10050" 	g2="afii10084,afii10092" 	k="57" />
<hkern g1="T,afii10052,afii10020,afii10036,afii10050" 	g2="C,G,O,Q,afii10053,afii10032,afii10035,afii10038" 	k="55" />
<hkern g1="T,afii10052,afii10020,afii10036,afii10050" 	g2="J,afii10057" 	k="170" />
<hkern g1="T,afii10052,afii10020,afii10036,afii10050" 	g2="S,afii10054,afii10025" 	k="6" />
<hkern g1="T,afii10052,afii10020,afii10036,afii10050" 	g2="f,uniFB01,uniFB02" 	k="63" />
<hkern g1="T,afii10052,afii10020,afii10036,afii10050" 	g2="u,uni00B5" 	k="174" />
<hkern g1="T,afii10052,afii10020,afii10036,afii10050" 	g2="w,afii10089" 	k="115" />
<hkern g1="T,afii10052,afii10020,afii10036,afii10050" 	g2="v" 	k="115" />
<hkern g1="T,afii10052,afii10020,afii10036,afii10050" 	g2="y,afii10085,afii10110" 	k="115" />
<hkern g1="T,afii10052,afii10020,afii10036,afii10050" 	g2="afii10069,afii10077,afii10106" 	k="205" />
<hkern g1="T,afii10052,afii10020,afii10036,afii10050" 	g2="A,afii10058,afii10017,afii10021,afii10029,uni2206" 	k="137" />
<hkern g1="T,afii10052,afii10020,afii10036,afii10050" 	g2="comma,period,quotesinglbase,quotedblbase,ellipsis" 	k="190" />
<hkern g1="T,afii10052,afii10020,afii10036,afii10050" 	g2="ampersand" 	k="117" />
<hkern g1="T,afii10052,afii10020,afii10036,afii10050" 	g2="hyphen,periodcentered,endash,emdash" 	k="123" />
<hkern g1="T,afii10052,afii10020,afii10036,afii10050" 	g2="a,afii10065" 	k="195" />
<hkern g1="T,afii10052,afii10020,afii10036,afii10050" 	g2="c,d,e,g,o,q,cent,afii10066,afii10070,afii10080,afii10083,afii10086,afii10071,afii10101" 	k="236" />
<hkern g1="T,afii10052,afii10020,afii10036,afii10050" 	g2="x,afii10072,afii10087" 	k="135" />
<hkern g1="T,afii10052,afii10020,afii10036,afii10050" 	g2="s,afii10073,afii10095,afii10102" 	k="186" />
<hkern g1="T,afii10052,afii10020,afii10036,afii10050" 	g2="colon,semicolon" 	k="102" />
<hkern g1="T,afii10052,afii10020,afii10036,afii10050" 	g2="m,n,p,r,z,afii10067,afii10074,afii10076,afii10078,afii10079,afii10081,afii10082,afii10088,afii10090,afii10091,afii10093,afii10094,afii10096,afii10097,afii10100,afii10107,afii10193,afii10098" 	k="174" />
<hkern g1="afii10068,afii10084,afii10100,afii10098" 	g2="T,afii10051,afii10060,afii10036,afii10041,afii10044" 	k="57" />
<hkern g1="afii10068,afii10084,afii10100,afii10098" 	g2="V" 	k="6" />
<hkern g1="afii10068,afii10084,afii10100,afii10098" 	g2="afii10069,afii10077,afii10106" 	k="88" />
<hkern g1="afii10068,afii10084,afii10100,afii10098" 	g2="A,afii10058,afii10017,afii10021,afii10029,uni2206" 	k="76" />
<hkern g1="afii10068,afii10084,afii10100,afii10098" 	g2="comma,period,quotesinglbase,quotedblbase,ellipsis" 	k="123" />
<hkern g1="afii10068,afii10084,afii10100,afii10098" 	g2="ampersand" 	k="90" />
<hkern g1="J,U,afii10057" 	g2="J,afii10057" 	k="25" />
<hkern g1="J,U,afii10057" 	g2="afii10069,afii10077,afii10106" 	k="18" />
<hkern g1="J,U,afii10057" 	g2="A,afii10058,afii10017,afii10021,afii10029,uni2206" 	k="53" />
<hkern g1="J,U,afii10057" 	g2="comma,period,quotesinglbase,quotedblbase,ellipsis" 	k="61" />
<hkern g1="V,afii10062,afii10037" 	g2="afii10084,afii10092" 	k="6" />
<hkern g1="V,afii10062,afii10037" 	g2="C,G,O,Q,afii10053,afii10032,afii10035,afii10038" 	k="41" />
<hkern g1="V,afii10062,afii10037" 	g2="J,afii10057" 	k="190" />
<hkern g1="V,afii10062,afii10037" 	g2="f,uniFB01,uniFB02" 	k="47" />
<hkern g1="V,afii10062,afii10037" 	g2="u,uni00B5" 	k="86" />
<hkern g1="V,afii10062,afii10037" 	g2="t" 	k="27" />
<hkern g1="V,afii10062,afii10037" 	g2="w,afii10089" 	k="12" />
<hkern g1="V,afii10062,afii10037" 	g2="v" 	k="27" />
<hkern g1="V,afii10062,afii10037" 	g2="y,afii10085,afii10110" 	k="12" />
<hkern g1="V,afii10062,afii10037" 	g2="afii10069,afii10077,afii10106" 	k="111" />
<hkern g1="V,afii10062,afii10037" 	g2="A,afii10058,afii10017,afii10021,afii10029,uni2206" 	k="111" />
<hkern g1="V,afii10062,afii10037" 	g2="comma,period,quotesinglbase,quotedblbase,ellipsis" 	k="184" />
<hkern g1="V,afii10062,afii10037" 	g2="ampersand" 	k="59" />
<hkern g1="V,afii10062,afii10037" 	g2="hyphen,periodcentered,endash,emdash" 	k="109" />
<hkern g1="V,afii10062,afii10037" 	g2="a,afii10065" 	k="129" />
<hkern g1="V,afii10062,afii10037" 	g2="c,d,e,g,o,q,cent,afii10066,afii10070,afii10080,afii10083,afii10086,afii10071,afii10101" 	k="123" />
<hkern g1="V,afii10062,afii10037" 	g2="x,afii10072,afii10087" 	k="47" />
<hkern g1="V,afii10062,afii10037" 	g2="s,afii10073,afii10095,afii10102" 	k="80" />
<hkern g1="V,afii10062,afii10037" 	g2="m,n,p,r,z,afii10067,afii10074,afii10076,afii10078,afii10079,afii10081,afii10082,afii10088,afii10090,afii10091,afii10093,afii10094,afii10096,afii10097,afii10100,afii10107,afii10193,afii10098" 	k="86" />
<hkern g1="W" 	g2="C,G,O,Q,afii10053,afii10032,afii10035,afii10038" 	k="41" />
<hkern g1="W" 	g2="J,afii10057" 	k="78" />
<hkern g1="W" 	g2="f,uniFB01,uniFB02" 	k="27" />
<hkern g1="W" 	g2="u,uni00B5" 	k="61" />
<hkern g1="W" 	g2="t" 	k="27" />
<hkern g1="W" 	g2="v" 	k="6" />
<hkern g1="W" 	g2="y,afii10085,afii10110" 	k="6" />
<hkern g1="W" 	g2="afii10069,afii10077,afii10106" 	k="102" />
<hkern g1="W" 	g2="A,afii10058,afii10017,afii10021,afii10029,uni2206" 	k="96" />
<hkern g1="W" 	g2="comma,period,quotesinglbase,quotedblbase,ellipsis" 	k="137" />
<hkern g1="W" 	g2="ampersand" 	k="41" />
<hkern g1="W" 	g2="hyphen,periodcentered,endash,emdash" 	k="68" />
<hkern g1="W" 	g2="a,afii10065" 	k="82" />
<hkern g1="W" 	g2="c,d,e,g,o,q,cent,afii10066,afii10070,afii10080,afii10083,afii10086,afii10071,afii10101" 	k="82" />
<hkern g1="W" 	g2="x,afii10072,afii10087" 	k="47" />
<hkern g1="W" 	g2="s,afii10073,afii10095,afii10102" 	k="39" />
<hkern g1="W" 	g2="m,n,p,r,z,afii10067,afii10074,afii10076,afii10078,afii10079,afii10081,afii10082,afii10088,afii10090,afii10091,afii10093,afii10094,afii10096,afii10097,afii10100,afii10107,afii10193,afii10098" 	k="61" />
<hkern g1="Y" 	g2="C,G,O,Q,afii10053,afii10032,afii10035,afii10038" 	k="82" />
<hkern g1="Y" 	g2="J,afii10057" 	k="231" />
<hkern g1="Y" 	g2="S,afii10054,afii10025" 	k="41" />
<hkern g1="Y" 	g2="f,uniFB01,uniFB02" 	k="100" />
<hkern g1="Y" 	g2="u,uni00B5" 	k="184" />
<hkern g1="Y" 	g2="t" 	k="53" />
<hkern g1="Y" 	g2="w,afii10089" 	k="123" />
<hkern g1="Y" 	g2="v" 	k="123" />
<hkern g1="Y" 	g2="y,afii10085,afii10110" 	k="123" />
<hkern g1="Y" 	g2="afii10069,afii10077,afii10106" 	k="141" />
<hkern g1="Y" 	g2="A,afii10058,afii10017,afii10021,afii10029,uni2206" 	k="129" />
<hkern g1="Y" 	g2="comma,period,quotesinglbase,quotedblbase,ellipsis" 	k="184" />
<hkern g1="Y" 	g2="ampersand" 	k="123" />
<hkern g1="Y" 	g2="hyphen,periodcentered,endash,emdash" 	k="238" />
<hkern g1="Y" 	g2="a,afii10065" 	k="248" />
<hkern g1="Y" 	g2="c,d,e,g,o,q,cent,afii10066,afii10070,afii10080,afii10083,afii10086,afii10071,afii10101" 	k="260" />
<hkern g1="Y" 	g2="x,afii10072,afii10087" 	k="150" />
<hkern g1="Y" 	g2="s,afii10073,afii10095,afii10102" 	k="205" />
<hkern g1="Y" 	g2="colon,semicolon" 	k="121" />
<hkern g1="Y" 	g2="m,n,p,r,z,afii10067,afii10074,afii10076,afii10078,afii10079,afii10081,afii10082,afii10088,afii10090,afii10091,afii10093,afii10094,afii10096,afii10097,afii10100,afii10107,afii10193,afii10098" 	k="184" />
<hkern g1="Z" 	g2="C,G,O,Q,afii10053,afii10032,afii10035,afii10038" 	k="35" />
<hkern g1="a,h,m,n,afii10065" 	g2="question" 	k="74" />
<hkern g1="a,h,m,n,afii10065" 	g2="quotedbl,quotesingle,registered,quoteleft,quoteright,quotedblleft,quotedblright,trademark" 	k="12" />
<hkern g1="a,h,m,n,afii10065" 	g2="T,afii10051,afii10060,afii10036,afii10041,afii10044" 	k="221" />
<hkern g1="a,h,m,n,afii10065" 	g2="W" 	k="88" />
<hkern g1="a,h,m,n,afii10065" 	g2="V" 	k="135" />
<hkern g1="a,h,m,n,afii10065" 	g2="Y" 	k="225" />
<hkern g1="ampersand" 	g2="afii10084,afii10092" 	k="131" />
<hkern g1="ampersand" 	g2="T,afii10051,afii10060,afii10036,afii10041,afii10044" 	k="152" />
<hkern g1="ampersand" 	g2="W" 	k="98" />
<hkern g1="ampersand" 	g2="V" 	k="102" />
<hkern g1="ampersand" 	g2="Y" 	k="186" />
<hkern g1="asterisk" 	g2="J,afii10057" 	k="238" />
<hkern g1="asterisk" 	g2="afii10069,afii10077,afii10106" 	k="131" />
<hkern g1="asterisk" 	g2="A,afii10058,afii10017,afii10021,afii10029,uni2206" 	k="207" />
<hkern g1="b,o,p,afii10080,afii10082,afii10086,afii10095,afii10096" 	g2="question" 	k="94" />
<hkern g1="b,o,p,afii10080,afii10082,afii10086,afii10095,afii10096" 	g2="quotedbl,quotesingle,registered,quoteleft,quoteright,quotedblleft,quotedblright,trademark" 	k="20" />
<hkern g1="b,o,p,afii10080,afii10082,afii10086,afii10095,afii10096" 	g2="T,afii10051,afii10060,afii10036,afii10041,afii10044" 	k="236" />
<hkern g1="b,o,p,afii10080,afii10082,afii10086,afii10095,afii10096" 	g2="W" 	k="82" />
<hkern g1="b,o,p,afii10080,afii10082,afii10086,afii10095,afii10096" 	g2="V" 	k="123" />
<hkern g1="b,o,p,afii10080,afii10082,afii10086,afii10095,afii10096" 	g2="Y" 	k="254" />
<hkern g1="b,o,p,afii10080,afii10082,afii10086,afii10095,afii10096" 	g2="comma,period,quotesinglbase,quotedblbase,ellipsis" 	k="14" />
<hkern g1="b,o,p,afii10080,afii10082,afii10086,afii10095,afii10096" 	g2="x,afii10072,afii10087" 	k="76" />
<hkern g1="bullet" 	g2="afii10069,afii10077,afii10106" 	k="20" />
<hkern g1="c,cent,afii10083,afii10101" 	g2="question" 	k="47" />
<hkern g1="c,cent,afii10083,afii10101" 	g2="quotedbl,quotesingle,registered,quoteleft,quoteright,quotedblleft,quotedblright,trademark" 	k="6" />
<hkern g1="c,cent,afii10083,afii10101" 	g2="T,afii10051,afii10060,afii10036,afii10041,afii10044" 	k="166" />
<hkern g1="c,cent,afii10083,afii10101" 	g2="W" 	k="47" />
<hkern g1="c,cent,afii10083,afii10101" 	g2="V" 	k="74" />
<hkern g1="c,cent,afii10083,afii10101" 	g2="Y" 	k="129" />
<hkern g1="colon,semicolon" 	g2="T,afii10051,afii10060,afii10036,afii10041,afii10044" 	k="102" />
<hkern g1="colon,semicolon" 	g2="Y" 	k="121" />
<hkern g1="e,afii10070,afii10071" 	g2="question" 	k="74" />
<hkern g1="e,afii10070,afii10071" 	g2="quotedbl,quotesingle,registered,quoteleft,quoteright,quotedblleft,quotedblright,trademark" 	k="6" />
<hkern g1="e,afii10070,afii10071" 	g2="asterisk" 	k="35" />
<hkern g1="e,afii10070,afii10071" 	g2="T,afii10051,afii10060,afii10036,afii10041,afii10044" 	k="207" />
<hkern g1="e,afii10070,afii10071" 	g2="W" 	k="82" />
<hkern g1="e,afii10070,afii10071" 	g2="V" 	k="109" />
<hkern g1="e,afii10070,afii10071" 	g2="Y" 	k="225" />
<hkern g1="e,afii10070,afii10071" 	g2="comma,period,quotesinglbase,quotedblbase,ellipsis" 	k="14" />
<hkern g1="f" 	g2="question" 	k="-117" />
<hkern g1="f" 	g2="quotedbl,quotesingle,registered,quoteleft,quoteright,quotedblleft,quotedblright,trademark" 	k="-137" />
<hkern g1="f" 	g2="asterisk" 	k="-137" />
<hkern g1="f" 	g2="S,afii10054,afii10025" 	k="-47" />
<hkern g1="f" 	g2="U" 	k="-82" />
<hkern g1="f" 	g2="T,afii10051,afii10060,afii10036,afii10041,afii10044" 	k="-82" />
<hkern g1="f" 	g2="W" 	k="-129" />
<hkern g1="f" 	g2="V" 	k="-129" />
<hkern g1="f" 	g2="Y" 	k="-115" />
<hkern g1="f" 	g2="Z" 	k="-82" />
<hkern g1="f" 	g2="comma,period,quotesinglbase,quotedblbase,ellipsis" 	k="88" />
<hkern g1="f" 	g2="X,afii10062,afii10024,afii10037,afii10039" 	k="-82" />
<hkern g1="f" 	g2="ampersand" 	k="6" />
<hkern g1="f" 	g2="exclam,B,D,E,F,H,I,K,L,M,N,P,R" 	k="-82" />
<hkern g1="f" 	g2="parenright,bracketright,braceright" 	k="-152" />
<hkern g1="g,j,q,afii10105" 	g2="question" 	k="47" />
<hkern g1="g,j,q,afii10105" 	g2="T,afii10051,afii10060,afii10036,afii10041,afii10044" 	k="174" />
<hkern g1="g,j,q,afii10105" 	g2="W" 	k="61" />
<hkern g1="g,j,q,afii10105" 	g2="V" 	k="86" />
<hkern g1="g,j,q,afii10105" 	g2="Y" 	k="184" />
<hkern g1="g,j,q,afii10105" 	g2="j,afii10105" 	k="-94" />
<hkern g1="hyphen,periodcentered,endash,emdash" 	g2="W" 	k="68" />
<hkern g1="hyphen,periodcentered,endash,emdash" 	g2="V" 	k="109" />
<hkern g1="hyphen,periodcentered,endash,emdash" 	g2="Y" 	k="223" />
<hkern g1="hyphen,periodcentered,endash,emdash" 	g2="X,afii10062,afii10024,afii10037,afii10039" 	k="88" />
<hkern g1="k,afii10072,afii10076,afii10109" 	g2="T,afii10051,afii10060,afii10036,afii10041,afii10044" 	k="141" />
<hkern g1="k,afii10072,afii10076,afii10109" 	g2="W" 	k="47" />
<hkern g1="k,afii10072,afii10076,afii10109" 	g2="V" 	k="47" />
<hkern g1="k,afii10072,afii10076,afii10109" 	g2="Y" 	k="135" />
<hkern g1="k,afii10072,afii10076,afii10109" 	g2="bullet" 	k="55" />
<hkern g1="k,afii10072,afii10076,afii10109" 	g2="hyphen,periodcentered,endash,emdash" 	k="55" />
<hkern g1="k,afii10072,afii10076,afii10109" 	g2="c,d,e,g,o,q,cent,afii10066,afii10070,afii10080,afii10083,afii10086,afii10071,afii10101" 	k="6" />
<hkern g1="comma,period,quotesinglbase,quotedblbase,ellipsis" 	g2="quotedbl,quotesingle,registered,quoteleft,quoteright,quotedblleft,quotedblright,trademark" 	k="156" />
<hkern g1="comma,period,quotesinglbase,quotedblbase,ellipsis" 	g2="afii10084,afii10092" 	k="123" />
<hkern g1="comma,period,quotesinglbase,quotedblbase,ellipsis" 	g2="U" 	k="61" />
<hkern g1="comma,period,quotesinglbase,quotedblbase,ellipsis" 	g2="T,afii10051,afii10060,afii10036,afii10041,afii10044" 	k="190" />
<hkern g1="comma,period,quotesinglbase,quotedblbase,ellipsis" 	g2="W" 	k="137" />
<hkern g1="comma,period,quotesinglbase,quotedblbase,ellipsis" 	g2="V" 	k="178" />
<hkern g1="comma,period,quotesinglbase,quotedblbase,ellipsis" 	g2="Y" 	k="184" />
<hkern g1="comma,period,quotesinglbase,quotedblbase,ellipsis" 	g2="f,uniFB01,uniFB02" 	k="47" />
<hkern g1="comma,period,quotesinglbase,quotedblbase,ellipsis" 	g2="t" 	k="47" />
<hkern g1="comma,period,quotesinglbase,quotedblbase,ellipsis" 	g2="w,afii10089" 	k="90" />
<hkern g1="comma,period,quotesinglbase,quotedblbase,ellipsis" 	g2="v" 	k="137" />
<hkern g1="comma,period,quotesinglbase,quotedblbase,ellipsis" 	g2="y,afii10085,afii10110" 	k="117" />
<hkern g1="comma,period,quotesinglbase,quotedblbase,ellipsis" 	g2="c,d,e,g,o,q,cent,afii10066,afii10070,afii10080,afii10083,afii10086,afii10071,afii10101" 	k="14" />
<hkern g1="comma,period,quotesinglbase,quotedblbase,ellipsis" 	g2="j,afii10105" 	k="-82" />
<hkern g1="comma,period,quotesinglbase,quotedblbase,ellipsis" 	g2="seven" 	k="135" />
<hkern g1="comma,period,quotesinglbase,quotedblbase,ellipsis" 	g2="one" 	k="160" />
<hkern g1="comma,period,quotesinglbase,quotedblbase,ellipsis" 	g2="zero,six" 	k="63" />
<hkern g1="questiondown" 	g2="j,afii10105" 	k="-328" />
<hkern g1="quotedbl,quotesingle,quoteleft,quoteright,quotedblleft,quotedblright" 	g2="C,G,O,Q,afii10053,afii10032,afii10035,afii10038" 	k="6" />
<hkern g1="quotedbl,quotesingle,quoteleft,quoteright,quotedblleft,quotedblright" 	g2="J,afii10057" 	k="188" />
<hkern g1="quotedbl,quotesingle,quoteleft,quoteright,quotedblleft,quotedblright" 	g2="afii10069,afii10077,afii10106" 	k="164" />
<hkern g1="quotedbl,quotesingle,quoteleft,quoteright,quotedblleft,quotedblright" 	g2="A,afii10058,afii10017,afii10021,afii10029,uni2206" 	k="213" />
<hkern g1="quotedbl,quotesingle,quoteleft,quoteright,quotedblleft,quotedblright" 	g2="comma,period,quotesinglbase,quotedblbase,ellipsis" 	k="156" />
<hkern g1="quotedbl,quotesingle,quoteleft,quoteright,quotedblleft,quotedblright" 	g2="s,afii10073,afii10095,afii10102" 	k="61" />
<hkern g1="r" 	g2="T,afii10051,afii10060,afii10036,afii10041,afii10044" 	k="98" />
<hkern g1="r" 	g2="W" 	k="12" />
<hkern g1="r" 	g2="V" 	k="47" />
<hkern g1="r" 	g2="Y" 	k="102" />
<hkern g1="r" 	g2="comma,period,quotesinglbase,quotedblbase,ellipsis" 	k="170" />
<hkern g1="r" 	g2="X,afii10062,afii10024,afii10037,afii10039" 	k="18" />
<hkern g1="s,afii10102" 	g2="question" 	k="88" />
<hkern g1="s,afii10102" 	g2="quotedbl,quotesingle,registered,quoteleft,quoteright,quotedblleft,quotedblright,trademark" 	k="41" />
<hkern g1="s,afii10102" 	g2="T,afii10051,afii10060,afii10036,afii10041,afii10044" 	k="180" />
<hkern g1="s,afii10102" 	g2="W" 	k="80" />
<hkern g1="s,afii10102" 	g2="V" 	k="88" />
<hkern g1="s,afii10102" 	g2="Y" 	k="190" />
<hkern g1="s,afii10102" 	g2="X,afii10062,afii10024,afii10037,afii10039" 	k="6" />
<hkern g1="t" 	g2="T,afii10051,afii10060,afii10036,afii10041,afii10044" 	k="106" />
<hkern g1="t" 	g2="W" 	k="27" />
<hkern g1="t" 	g2="V" 	k="53" />
<hkern g1="t" 	g2="Y" 	k="68" />
<hkern g1="u,z,uni00B5,afii10069,afii10074,afii10077,afii10078,afii10079,afii10081,afii10088,afii10089,afii10090,afii10091,afii10093,afii10097,afii10193" 	g2="question" 	k="47" />
<hkern g1="u,z,uni00B5,afii10069,afii10074,afii10077,afii10078,afii10079,afii10081,afii10088,afii10089,afii10090,afii10091,afii10093,afii10097,afii10193" 	g2="T,afii10051,afii10060,afii10036,afii10041,afii10044" 	k="174" />
<hkern g1="u,z,uni00B5,afii10069,afii10074,afii10077,afii10078,afii10079,afii10081,afii10088,afii10089,afii10090,afii10091,afii10093,afii10097,afii10193" 	g2="W" 	k="61" />
<hkern g1="u,z,uni00B5,afii10069,afii10074,afii10077,afii10078,afii10079,afii10081,afii10088,afii10089,afii10090,afii10091,afii10093,afii10097,afii10193" 	g2="V" 	k="86" />
<hkern g1="u,z,uni00B5,afii10069,afii10074,afii10077,afii10078,afii10079,afii10081,afii10088,afii10089,afii10090,afii10091,afii10093,afii10097,afii10193" 	g2="Y" 	k="184" />
<hkern g1="v" 	g2="T,afii10051,afii10060,afii10036,afii10041,afii10044" 	k="115" />
<hkern g1="v" 	g2="W" 	k="6" />
<hkern g1="v" 	g2="V" 	k="27" />
<hkern g1="v" 	g2="Y" 	k="123" />
<hkern g1="v" 	g2="A,afii10058,afii10017,afii10021,afii10029,uni2206" 	k="41" />
<hkern g1="v" 	g2="comma,period,quotesinglbase,quotedblbase,ellipsis" 	k="137" />
<hkern g1="v" 	g2="X,afii10062,afii10024,afii10037,afii10039" 	k="76" />
<hkern g1="w" 	g2="T,afii10051,afii10060,afii10036,afii10041,afii10044" 	k="115" />
<hkern g1="w" 	g2="V" 	k="12" />
<hkern g1="w" 	g2="Y" 	k="123" />
<hkern g1="w" 	g2="A,afii10058,afii10017,afii10021,afii10029,uni2206" 	k="35" />
<hkern g1="w" 	g2="comma,period,quotesinglbase,quotedblbase,ellipsis" 	k="90" />
<hkern g1="w" 	g2="X,afii10062,afii10024,afii10037,afii10039" 	k="90" />
<hkern g1="y,afii10085,afii10110" 	g2="question" 	k="6" />
<hkern g1="y,afii10085,afii10110" 	g2="T,afii10051,afii10060,afii10036,afii10041,afii10044" 	k="115" />
<hkern g1="y,afii10085,afii10110" 	g2="W" 	k="6" />
<hkern g1="y,afii10085,afii10110" 	g2="V" 	k="12" />
<hkern g1="y,afii10085,afii10110" 	g2="Y" 	k="123" />
<hkern g1="y,afii10085,afii10110" 	g2="A,afii10058,afii10017,afii10021,afii10029,uni2206" 	k="41" />
<hkern g1="y,afii10085,afii10110" 	g2="comma,period,quotesinglbase,quotedblbase,ellipsis" 	k="117" />
<hkern g1="y,afii10085,afii10110" 	g2="X,afii10062,afii10024,afii10037,afii10039" 	k="76" />
<hkern g1="X,afii10039" 	g2="C,G,O,Q,afii10053,afii10032,afii10035,afii10038" 	k="61" />
<hkern g1="X,afii10039" 	g2="f,uniFB01,uniFB02" 	k="61" />
<hkern g1="X,afii10039" 	g2="t" 	k="61" />
<hkern g1="X,afii10039" 	g2="w,afii10089" 	k="90" />
<hkern g1="X,afii10039" 	g2="v" 	k="76" />
<hkern g1="X,afii10039" 	g2="y,afii10085,afii10110" 	k="76" />
<hkern g1="X,afii10039" 	g2="hyphen,periodcentered,endash,emdash" 	k="88" />
<hkern g1="zero,nine" 	g2="comma,period,quotesinglbase,quotedblbase,ellipsis" 	k="63" />
<hkern g1="seven" 	g2="comma,period,quotesinglbase,quotedblbase,ellipsis" 	k="199" />
<hkern g1="x,afii10087" 	g2="T,afii10051,afii10060,afii10036,afii10041,afii10044" 	k="135" />
<hkern g1="x,afii10087" 	g2="W" 	k="47" />
<hkern g1="x,afii10087" 	g2="V" 	k="47" />
<hkern g1="x,afii10087" 	g2="Y" 	k="150" />
<hkern g1="x,afii10087" 	g2="c,d,e,g,o,q,cent,afii10066,afii10070,afii10080,afii10083,afii10086,afii10071,afii10101" 	k="76" />
<hkern g1="parenleft,bracketleft,braceleft" 	g2="j,afii10105" 	k="-225" />
</font>
</defs></svg> 